%!PS-Adobe-3.0
%%Creator: gEDA gschem 20080127
%%CreationDate: Sat Feb 27 19:42:14 2010
%%Title: /work/jb/Entwicklung/repository/AVR-DCF77/hardware-2/subUSB.sch
%%Author: (null)
%%BoundingBox: 0 0 595 841
%%Orientation: Landscape
%%Pages: 1
%%Endcomments
%%BeginProlog
% Prolog for gEDA, define all the functions needed for rendering
% schematics on Postscript devices


% Draw a line from the second coordinate to the first
% x2 y2 x1 y1 width line -
/line {
    setlinewidth
    % pop off first element and moveto
    moveto
    % pop off remaining elements and draw a line segment
    lineto
    % draw it
    stroke
} bind def


% Draw a dot
% x y r dot -
/dot {
    0 360 arc fill
} bind def

% Draw a dot-dashed line, a bunch of lined segments,
% if the array element only has length two, draw a dot.
% [ [x2 y2 x1 y1] [x4 y4 x3 y3] [x5 y5] ... ] width dashed -
/width 0 def
/dashed {
    dup 2.0 div /width exch def
    setlinewidth
    % pop off each line segment and draw it as a dot or as a line
    {
	aload length 2 gt
	{ moveto lineto stroke}
	{ width dot } ifelse
    } forall
} bind def

% Draw an arc segment
% x y r ang1 ang2 width darc -
/darc {
    setlinewidth
    arc stroke
} bind def

% Draw a series of arc segment bits, if the array element only has a single
% element in it, draw a dot.
% [ [sa1 ea1] [sa2 ea2] ... ] x y r width dashedarc -
/x 0 def
/y 0 def
/dashedarc {
    dup /width exch def
    setlinewidth
    /r exch def  
    /y exch def
    /x exch def
    { aload length 1 gt
	{
	    % this element had two angles in it
	    % extract start and stop angles
	    x y r   % drop x y and r onto stack
		    % at this point we have: sa ea x y r
		    % we need                      x y r sa ea
		    % so..
	    5 -2 roll
	    % and add it to the current path, and draw it
	    arc stroke
	} {
	    % this element only had one angle in it, place a
	    % filled dot at the appropriate place
	    % compute center point of the arc using the angle
	    % that is on the top of the stack
	    dup   		% angle angle
	    cos r mul x add 	% angle x
	    exch		% x angle
	    sin r mul y add	% x y
	    width		% x y width/2
	    dot			% draw the dot
	} ifelse
    } forall

    % Now draw it
    stroke
} bind def

% Draw a box
% width height x y linethickness box -
/box {
    setlinewidth
    moveto
    exch dup 0 rlineto	 % w h, h w w 0      -- Draw bottom line
    exch 0 exch rlineto	 % h w, w h 0, w 0 h -- Draw right line 
    neg 0 rlineto	 % w, -w 0           -- Draw Top line
    closepath		 % finish and draw it
    stroke
} bind def			     

% Draw a filled box
% width height x y fbox -
/fbox {
    moveto
    exch dup 0 rlineto	
    exch 0 exch rlineto	
    neg 0 rlineto		
    closepath			
    fill			
} bind def

% Font reincoding utilities

% ISOLatin1Encoding, extended with remaining uncoded glyphs
/ISOLatin1Extended [
    /.notdef /Lslash /lslash /OE /oe /Scaron /scaron /Zcaron /zcaron
    /Ydieresis /trademark /bullet /dagger /daggerdbl /ellipsis /emdash
    /endash /fi /fl /florin /fraction /guilsinglleft /guilsinglright
    /perthousand /quotedblbase /quotedblleft /quotedblright
    /quotesinglbase /quotesingle /.notdef /.notdef /.notdef /space
    /exclam /quotedbl /numbersign /dollar /percent /ampersand
    /quoteright /parenleft /parenright /asterisk /plus /comma /minus
    /period /slash /zero /one /two /three /four /five /six /seven /eight
    /nine /colon /semicolon /less /equal /greater /question /at /A /B /C
    /D /E /F /G /H /I /J /K /L /M /N /O /P /Q /R /S /T /U /V /W /X /Y /Z
    /bracketleft /backslash /bracketright /asciicircum /underscore
    /quoteleft /a /b /c /d /e /f /g /h /i /j /k /l /m /n /o /p /q /r /s
    /t /u /v /w /x /y /z /braceleft /bar /braceright /asciitilde
    /.notdef /.notdef /.notdef /.notdef /.notdef /.notdef /.notdef
    /.notdef /.notdef /.notdef /.notdef /.notdef /.notdef /.notdef
    /.notdef /.notdef /.notdef /dotlessi /grave /acute /circumflex
    /tilde /macron /breve /dotaccent /dieresis /.notdef /ring /cedilla
    /.notdef /hungarumlaut /ogonek /caron /space /exclamdown /cent
    /sterling /currency /yen /brokenbar /section /dieresis /copyright
    /ordfeminine /guillemotleft /logicalnot /hyphen /registered /macron
    /degree /plusminus /twosuperior /threesuperior /acute /mu /paragraph
    /periodcentered /cedilla /onesuperior /ordmasculine /guillemotright
    /onequarter /onehalf /threequarters /questiondown /Agrave /Aacute
    /Acircumflex /Atilde /Adieresis /Aring /AE /Ccedilla /Egrave /Eacute
    /Ecircumflex /Edieresis /Igrave /Iacute /Icircumflex /Idieresis /Eth
    /Ntilde /Ograve /Oacute /Ocircumflex /Otilde /Odieresis /multiply
    /Oslash /Ugrave /Uacute /Ucircumflex /Udieresis /Yacute /Thorn
    /germandbls /agrave /aacute /acircumflex /atilde /adieresis /aring
    /ae /ccedilla /egrave /eacute /ecircumflex /edieresis /igrave
    /iacute /icircumflex /idieresis /eth /ntilde /ograve /oacute
    /ocircumflex /otilde /odieresis /divide /oslash /ugrave /uacute
    /ucircumflex /udieresis /yacute /thorn /ydieresis
] def

% `new-font-name' `encoding-vector' `old-font-name' RE -
/RE {
    findfont
    dup maxlength dict begin {
        1 index /FID ne { def } { pop pop } ifelse
    } forall
    /Encoding exch def
    dup /FontName exch def
    currentdict end definefont pop
} bind def

% Text handling functions, select the font and scale it, then we need
% only to apply the appropriate transformations to get the text
% justified into the right spots.  The bad thing here is that we don't
% do any kerning, so the output may look a bit strange.

% compute the height of one character and return lly and ury
% (char) charheight lly ury
/charheight {
    gsave			% push graphics state
	newpath			% clear current path
	0 0 moveto		% Set current point
	false charpath		% get path
	flattenpath		% flatten path
	pathbbox		% stack = llx lly urx ury
	exch pop		% stack = llx lly ury
	3 -1 roll pop		% stack = lly ury
    grestore			% pop graphics state
} bind def

% compute the height of a string, one character at a time
% (string) stringheight lly ury
/lly 0.0 def
/ury 0.0 def

/stringheight {
    /lly 0.0 def			% initial value of heightmin
    /ury 0.0 def			% initial value of heightmax
    {				% work through string
	( ) dup 0 4 -1 roll put	% create one character string
	charheight		% measure it's height
	dup ury gt {		% if ury gt heightmax
	    /ury exch def	% update with new value
	} {
	    pop			% else discard ury
	} ifelse
	dup lly lt {		% if lly lt heightmin
	    /lly exch def	% update with new value
	} {
	    pop			% else discard lly
	} ifelse
    } forall
    lly ury			% Return the results
} bind def

% calculate the string width taking into account the escapes.
/mystrx 0.0 def
/mystry 0.0 def
/mystresc false def

/mystringwidth {
    /mystrx 0.0 def
    /mystry 0.0 def
    /mystresc false def
    {				% work through string
	% did we process the escape character last?
	mystresc {
	    % last character was escape
	    % handle the escape
	    % is it an _ = 95?
	    dup 95 eq {
		pop  % we don't need the character anymore
		% toggle drawing overbars
		0.0 0.0 % make it like it never happened...
	    } {
		% otherwise measure the character 
		(\\ ) dup 1 4 -1 roll put % count a \ and the character
		stringwidth
	    } ifelse
	    % and reset the flag
	    /mystresc false def
	} {
	    % last character was not escape
	    % is this escape
	    dup 92 eq {
		% yes, escape character, set flag
		/mystresc true def
		pop % drop character
		0.0 0.0 % make like this character has no width and height
	    } {
		( ) dup 0 4 -1 roll put	% create one character string
		stringwidth		% measure it's height/width
	    } ifelse
	} ifelse
	% accumulate x and y movements
	mystry add /mystry exch def
	mystrx add /mystrx exch def
    } forall
    mystrx mystry % drop results on stack
} bind def

% Render a string with overbars
%
/escaped false def
/drawoverbar false def
/fontsize 0.0 def

% Show a string, with an overbar over it
% string charshow -
/charshow {
    drawoverbar {
	% draw an overbar for the character
	gsave
	fontsize 10.0 div setlinewidth
	0 fontsize rmoveto  % move to (0,overbarheight) 
	dup stringwidth pop 0 rlineto % draw line to 
	stroke
	grestore
    } if
    show
} bind def

/overbarshow {
    /drawoverbar false def      % start by not drawing overbars
    {				% work through string
	escaped {
	    % the last character was the escape
	    % handle the escape
	    % is it an _ = 95?
	    dup 95 eq {
		pop  % we don't need the character anymore
		% toggle drawing overbars
		/drawoverbar drawoverbar not def
	    } {
		% otherwise render the character 
		(\\ ) dup 1 4 -1 roll put % draw a \ and the character
		charshow                      % render the string
	    } ifelse
	    % and reset the flag
	    /escaped false def
	} {
	    % check for escape character \ = 92
	    dup 92 eq {
		% yes, escape character, set flag
		/escaped true def
		pop % drop character
	    } {
		% no, reset flag and draw character
		( ) dup 0 4 -1 roll put	% create one character string
		charshow
	    } ifelse
	} ifelse
    } forall
} bind def
% 
% hcenter rjustify vcenter vjustify spacing [(line1) (line2) ... ] rot x y size text -
/stringw 0.0 def
/stringh 0.0 def
/spacing 0.0 def
/strings [ ] def
/stringtxt ( ) def
/stringcount 0 def
/rot 0.0 def

/text {
    gsave	        % save state for later

    dup /fontsize exch def  % save font size for corrections later
    % do font selection 
    /gEDAFont findfont
    exch scalefont
    setfont

    % set up coordinates
    translate           % move origin to given point
    rotate		% rotate so that text is drawn
    0 0 moveto
    dup length /stringcount exch def			% Get number of strings
    /strings exch def     				% save strings
    /spacing exch def
    % do we have more than 1 string to render?
    stringcount 1 eq {
	/stringtxt strings aload pop def		% get the string 
	/stringw stringtxt mystringwidth pop neg def	% get the -width
	/stringh stringtxt stringheight exch pop neg def% get the -height

	% First do vertical calculations
	% hcenter rjustify vcenter vjustify 
	% vertical justification
	{ 0 stringh rmoveto } if 
	% vertical center
	{ 0 stringh 0.3571425 mul rmoveto } if  % not 0.5, so that
						% it looks nicer
	% Then do horizontal calculations
	% right justify
	{ stringw 0 rmoveto } if
	% center
	{ stringw 2.0 div 0 rmoveto } if
	% Draw the text
	stringtxt overbarshow
    } {
	% More than one line, compute bounding box for the text

	% vertical height, don't use the actual hieght of the characters
	% assume that the user wants to make the baselines line up with two
	% text boxes placed side by side
	/stringh stringcount spacing mul neg def
	% Now figure out horizontal size, this amounts to keeping track
	% of the longest string
	/stringw 0.0 def
	strings {
	    mystringwidth pop
	    dup stringw gt {
		/stringw exch def
	    } {
		pop
	    } ifelse
	} forall
	/stringw stringw neg def 	% get the -width
	
	% First do vertical calculations
	% hcenter rjustify vcenter vjustify 
	% vertical justification
	{ 0 stringh fontsize add rmoveto } if 
	% vertical center
	{ 0 stringh 0.5 mul rmoveto } if 
	% Then do horizontal calculations
	% right justify
	{ stringw 0 rmoveto } if
	% center
	{ stringw 2.0 div 0 rmoveto } if
	% now move up to the first line and begin rendering
	0 stringcount 1 sub spacing mul rmoveto
	strings {
	    gsave		% Save starting point
	    overbarshow		% render the text
	    grestore
	    0 spacing neg rmoveto
	} forall
    } ifelse
    grestore 	% Restore old state
} bind def


%%EndProlog
%%Page: 1 1
/gEDAFont ISOLatin1Extended /Helvetica RE
2 setlinecap
0.072000 0.072000 scale
7892 531 translate 90 rotate
0.915570 0.915570 scale
-2696 -3796 translate
gsave
10200 4400 10200 3800 10 line
6700 3800 14300 3800 10 line
14300 3800 14300 5200 10 line
14300 5200 6700 5200 10 line
6700 5200 6700 3800 10 line
6700 4400 14300 4400 10 line
gsave
6800 4500 6800 4604 10 line
6800 4604 6864 4604 10 line
6800 4556 6848 4556 10 line
6892 4500 6892 4604 10 line
6920 4604 6920 4500 10 line
6920 4500 6984 4500 10 line
7080 4500 7008 4500 10 line
7008 4500 7008 4604 10 line
7008 4604 7080 4604 10 line
7008 4556 7064 4556 10 line
7136 4520 7140 4520 10 line
7140 4520 7144 4524 10 line
7144 4524 7144 4528 10 line
7144 4528 7140 4532 10 line
7140 4532 7136 4532 10 line
7136 4532 7132 4528 10 line
7132 4528 7132 4524 10 line
7132 4524 7136 4520 10 line
7136 4576 7140 4576 10 line
7140 4576 7144 4580 10 line
7144 4580 7144 4584 10 line
7144 4584 7140 4588 10 line
7140 4588 7136 4588 10 line
7136 4588 7132 4584 10 line
7132 4584 7132 4580 10 line
7132 4580 7136 4576 10 line
grestore
gsave
10300 4200 10300 4304 10 line
10300 4304 10352 4304 10 line
10352 4304 10368 4288 10 line
10368 4288 10368 4272 10 line
10368 4272 10352 4256 10 line
10352 4256 10300 4256 10 line
10332 4256 10376 4200 10 line
10476 4200 10404 4200 10 line
10404 4200 10404 4304 10 line
10404 4304 10476 4304 10 line
10404 4256 10460 4256 10 line
10520 4304 10564 4200 10 line
10564 4200 10608 4304 10 line
10636 4200 10636 4304 10 line
10664 4224 10672 4208 10 line
10672 4208 10688 4200 10 line
10688 4200 10712 4200 10 line
10712 4200 10728 4208 10 line
10728 4208 10736 4224 10 line
10736 4224 10736 4232 10 line
10736 4232 10720 4248 10 line
10720 4248 10672 4272 10 line
10672 4272 10664 4280 10 line
10664 4280 10664 4288 10 line
10664 4288 10672 4296 10 line
10672 4296 10688 4304 10 line
10688 4304 10712 4304 10 line
10712 4304 10728 4296 10 line
10772 4200 10772 4304 10 line
10856 4200 10880 4216 10 line
10880 4216 10888 4240 10 line
10888 4240 10888 4264 10 line
10888 4264 10880 4288 10 line
10856 4200 10832 4200 10 line
10832 4200 10808 4216 10 line
10808 4216 10800 4240 10 line
10800 4240 10800 4264 10 line
10800 4264 10808 4288 10 line
10808 4288 10832 4304 10 line
10832 4304 10856 4304 10 line
10856 4304 10880 4288 10 line
10928 4200 10928 4304 10 line
10928 4304 11008 4200 10 line
11008 4200 11008 4304 10 line
11052 4220 11056 4220 10 line
11056 4220 11060 4224 10 line
11060 4224 11060 4228 10 line
11060 4228 11056 4232 10 line
11056 4232 11052 4232 10 line
11052 4232 11048 4228 10 line
11048 4228 11048 4224 10 line
11048 4224 11052 4220 10 line
11052 4276 11056 4276 10 line
11056 4276 11060 4280 10 line
11060 4280 11060 4284 10 line
11060 4284 11056 4288 10 line
11056 4288 11052 4288 10 line
11052 4288 11048 4284 10 line
11048 4284 11048 4280 10 line
11048 4280 11052 4276 10 line
grestore
gsave
10300 3900 10348 3900 10 line
10348 3900 10372 3916 10 line
10372 3916 10380 3940 10 line
10380 3940 10380 3964 10 line
10380 3964 10372 3988 10 line
10372 3988 10348 4004 10 line
10348 4004 10300 4004 10 line
10300 4004 10300 3900 10 line
10404 3900 10404 4004 10 line
10404 4004 10456 4004 10 line
10456 4004 10472 3988 10 line
10472 3988 10472 3972 10 line
10472 3972 10456 3956 10 line
10456 3956 10404 3956 10 line
10436 3956 10480 3900 10 line
10508 3900 10548 4004 10 line
10548 4004 10588 3900 10 line
10524 3940 10572 3940 10 line
10624 4004 10656 3900 10 line
10656 3900 10688 4004 10 line
10688 4004 10720 3900 10 line
10720 3900 10752 4004 10 line
10772 3900 10772 4004 10 line
10772 4004 10852 3900 10 line
10852 3900 10852 4004 10 line
10928 3900 10928 4004 10 line
10928 4004 10968 4004 10 line
10968 4004 10988 3996 10 line
10988 3996 10996 3980 10 line
10996 3980 10996 3972 10 line
10996 3972 10980 3956 10 line
10980 3956 10928 3956 10 line
10928 3900 10980 3900 10 line
10980 3900 10996 3908 10 line
10996 3908 11004 3924 10 line
11004 3924 11004 3932 10 line
11004 3932 10996 3948 10 line
10996 3948 10980 3956 10 line
11044 4004 11084 3956 10 line
11084 3956 11084 3900 10 line
11124 4004 11084 3956 10 line
11156 3920 11160 3920 10 line
11160 3920 11164 3924 10 line
11164 3924 11164 3928 10 line
11164 3928 11160 3932 10 line
11160 3932 11156 3932 10 line
11156 3932 11152 3928 10 line
11152 3928 11152 3924 10 line
11152 3924 11156 3920 10 line
11156 3976 11160 3976 10 line
11160 3976 11164 3980 10 line
11164 3980 11164 3984 10 line
11164 3984 11160 3988 10 line
11160 3988 11156 3988 10 line
11156 3988 11152 3984 10 line
11152 3984 11152 3980 10 line
11152 3980 11156 3976 10 line
grestore
gsave
6800 3900 6800 4004 10 line
6800 4004 6852 4004 10 line
6852 4004 6868 3988 10 line
6868 3988 6868 3972 10 line
6868 3972 6852 3956 10 line
6852 3956 6800 3956 10 line
6900 3900 6940 4004 10 line
6940 4004 6980 3900 10 line
6916 3940 6964 3940 10 line
7072 3900 7096 3908 10 line
7096 3908 7104 3924 10 line
7104 3924 7104 3948 10 line
7104 3948 7072 3948 10 line
7072 3900 7048 3900 10 line
7048 3900 7024 3916 10 line
7024 3916 7016 3940 10 line
7016 3940 7016 3964 10 line
7016 3964 7024 3988 10 line
7024 3988 7048 4004 10 line
7048 4004 7072 4004 10 line
7072 4004 7096 3988 10 line
7208 3900 7136 3900 10 line
7136 3900 7136 4004 10 line
7136 4004 7208 4004 10 line
7136 3956 7192 3956 10 line
grestore
gsave
8556 3900 8580 3916 10 line
8580 3916 8588 3940 10 line
8588 3940 8588 3964 10 line
8588 3964 8580 3988 10 line
8556 3900 8532 3900 10 line
8532 3900 8508 3916 10 line
8508 3916 8500 3940 10 line
8500 3940 8500 3964 10 line
8500 3964 8508 3988 10 line
8508 3988 8532 4004 10 line
8532 4004 8556 4004 10 line
8556 4004 8580 3988 10 line
8628 3900 8628 4004 10 line
8628 4004 8692 4004 10 line
8628 3956 8676 3956 10 line
grestore
gsave
6836 4900 6836 5004 10 line
6800 5004 6872 5004 10 line
6900 4900 6900 5004 10 line
6964 4900 6964 5004 10 line
6928 5004 7000 5004 10 line
7020 5004 7020 4900 10 line
7020 4900 7084 4900 10 line
7180 4900 7108 4900 10 line
7108 4900 7108 5004 10 line
7108 5004 7180 5004 10 line
7108 4956 7164 4956 10 line
grestore
gsave
6800 4200 6848 4200 10 line
6848 4200 6872 4216 10 line
6872 4216 6880 4240 10 line
6880 4240 6880 4264 10 line
6880 4264 6872 4288 10 line
6872 4288 6848 4304 10 line
6848 4304 6800 4304 10 line
6800 4304 6800 4200 10 line
6904 4200 6944 4304 10 line
6944 4304 6984 4200 10 line
6920 4240 6968 4240 10 line
7056 4200 7056 4304 10 line
7020 4304 7092 4304 10 line
7184 4200 7112 4200 10 line
7112 4200 7112 4304 10 line
7112 4304 7184 4304 10 line
7112 4256 7168 4256 10 line
grestore
grestore
gsave
7300 4230 7310 4220 10 line
7310 4220 7330 4210 10 line
7330 4210 7350 4210 10 line
7350 4210 7370 4220 10 line
7370 4220 7380 4230 10 line
7380 4230 7380 4240 10 line
7380 4240 7370 4250 10 line
7370 4250 7310 4290 10 line
7310 4290 7300 4290 10 line
7300 4290 7300 4300 10 line
7300 4300 7310 4310 10 line
7310 4310 7330 4320 10 line
7330 4320 7350 4320 10 line
7350 4320 7370 4310 10 line
7370 4310 7380 4300 10 line
7340 4190 7340 4340 10 line
7440 4200 7500 4200 10 line
7500 4200 7530 4220 10 line
7530 4220 7540 4250 10 line
7540 4250 7540 4280 10 line
7540 4280 7530 4310 10 line
7530 4310 7500 4330 10 line
7500 4330 7440 4330 10 line
7440 4330 7440 4200 10 line
7650 4200 7640 4210 10 line
7640 4210 7640 4260 10 line
7640 4260 7620 4280 10 line
7620 4280 7590 4280 10 line
7590 4280 7580 4270 10 line
7640 4210 7620 4200 10 line
7620 4200 7590 4200 10 line
7590 4200 7570 4210 10 line
7570 4210 7570 4220 10 line
7570 4220 7590 4240 10 line
7590 4240 7640 4240 10 line
7690 4290 7730 4290 10 line
7710 4330 7710 4210 10 line
7710 4210 7720 4200 10 line
7720 4200 7730 4200 10 line
7820 4210 7800 4200 10 line
7800 4200 7780 4200 10 line
7780 4200 7760 4210 10 line
7760 4210 7750 4230 10 line
7750 4230 7750 4250 10 line
7750 4250 7760 4270 10 line
7760 4270 7780 4280 10 line
7780 4280 7800 4280 10 line
7800 4280 7820 4270 10 line
7750 4240 7830 4240 10 line
7830 4240 7830 4250 10 line
7830 4250 7820 4270 10 line
7865 4225 7870 4225 10 line
7870 4225 7875 4230 10 line
7875 4230 7875 4235 10 line
7875 4235 7870 4240 10 line
7870 4240 7865 4240 10 line
7865 4240 7860 4235 10 line
7860 4235 7860 4230 10 line
7860 4230 7865 4225 10 line
7865 4295 7870 4295 10 line
7870 4295 7875 4300 10 line
7875 4300 7875 4305 10 line
7875 4305 7870 4310 10 line
7870 4310 7865 4310 10 line
7865 4310 7860 4305 10 line
7860 4305 7860 4300 10 line
7860 4300 7865 4295 10 line
7925 4225 7930 4225 10 line
7930 4225 7935 4230 10 line
7935 4230 7935 4235 10 line
7935 4235 7930 4240 10 line
7930 4240 7925 4240 10 line
7925 4240 7920 4235 10 line
7920 4235 7920 4230 10 line
7920 4230 7925 4225 10 line
7925 4295 7930 4295 10 line
7930 4295 7935 4300 10 line
7935 4300 7935 4305 10 line
7935 4305 7930 4310 10 line
7930 4310 7925 4310 10 line
7925 4310 7920 4305 10 line
7920 4305 7920 4300 10 line
7920 4300 7925 4295 10 line
8115 4200 8025 4200 10 line
8025 4200 8045 4220 10 line
8045 4220 8105 4260 10 line
8105 4260 8115 4280 10 line
8115 4280 8115 4300 10 line
8115 4300 8105 4320 10 line
8105 4320 8085 4330 10 line
8085 4330 8065 4330 10 line
8065 4330 8045 4320 10 line
8045 4320 8035 4310 10 line
8185 4200 8165 4220 10 line
8165 4220 8155 4250 10 line
8155 4250 8155 4280 10 line
8155 4280 8165 4310 10 line
8165 4310 8185 4330 10 line
8185 4330 8215 4330 10 line
8215 4330 8235 4310 10 line
8235 4310 8245 4280 10 line
8245 4280 8245 4250 10 line
8245 4250 8235 4220 10 line
8235 4220 8215 4200 10 line
8215 4200 8185 4200 10 line
8305 4200 8305 4330 10 line
8305 4330 8295 4310 10 line
8295 4310 8285 4300 10 line
8395 4200 8375 4220 10 line
8375 4220 8365 4250 10 line
8365 4250 8365 4280 10 line
8365 4280 8375 4310 10 line
8375 4310 8395 4330 10 line
8395 4330 8425 4330 10 line
8425 4330 8445 4310 10 line
8445 4310 8455 4280 10 line
8455 4280 8455 4250 10 line
8455 4250 8445 4220 10 line
8445 4220 8425 4200 10 line
8425 4200 8395 4200 10 line
8495 4260 8555 4260 10 line
8625 4200 8605 4220 10 line
8605 4220 8595 4250 10 line
8595 4250 8595 4280 10 line
8595 4280 8605 4310 10 line
8605 4310 8625 4330 10 line
8625 4330 8655 4330 10 line
8655 4330 8675 4310 10 line
8675 4310 8685 4280 10 line
8685 4280 8685 4250 10 line
8685 4250 8675 4220 10 line
8675 4220 8655 4200 10 line
8655 4200 8625 4200 10 line
8745 4200 8745 4330 10 line
8745 4330 8735 4310 10 line
8735 4310 8725 4300 10 line
8805 4260 8865 4260 10 line
8995 4200 8905 4200 10 line
8905 4200 8925 4220 10 line
8925 4220 8985 4260 10 line
8985 4260 8995 4280 10 line
8995 4280 8995 4300 10 line
8995 4300 8985 4320 10 line
8985 4320 8965 4330 10 line
8965 4330 8945 4330 10 line
8945 4330 8925 4320 10 line
8925 4320 8915 4310 10 line
9115 4200 9115 4330 10 line
9115 4330 9035 4240 10 line
9035 4240 9125 4240 10 line
9240 4200 9240 4330 10 line
9240 4330 9230 4310 10 line
9230 4310 9220 4300 10 line
9380 4320 9360 4330 10 line
9360 4330 9330 4330 10 line
9330 4330 9310 4310 10 line
9310 4310 9300 4280 10 line
9300 4280 9300 4250 10 line
9300 4250 9310 4220 10 line
9310 4220 9330 4200 10 line
9330 4200 9360 4200 10 line
9360 4200 9380 4210 10 line
9380 4210 9390 4230 10 line
9390 4230 9390 4260 10 line
9390 4260 9380 4280 10 line
9380 4280 9360 4290 10 line
9360 4290 9330 4290 10 line
9330 4290 9310 4280 10 line
9310 4280 9300 4270 10 line
9435 4225 9440 4225 10 line
9440 4225 9445 4230 10 line
9445 4230 9445 4235 10 line
9445 4235 9440 4240 10 line
9440 4240 9435 4240 10 line
9435 4240 9430 4235 10 line
9430 4235 9430 4230 10 line
9430 4230 9435 4225 10 line
9435 4295 9440 4295 10 line
9440 4295 9445 4300 10 line
9445 4300 9445 4305 10 line
9445 4305 9440 4310 10 line
9440 4310 9435 4310 10 line
9435 4310 9430 4305 10 line
9430 4305 9430 4300 10 line
9430 4300 9435 4295 10 line
9560 4200 9560 4330 10 line
9560 4330 9480 4240 10 line
9480 4240 9570 4240 10 line
9690 4320 9670 4330 10 line
9670 4330 9640 4330 10 line
9640 4330 9620 4310 10 line
9620 4310 9610 4280 10 line
9610 4280 9610 4250 10 line
9610 4250 9620 4220 10 line
9620 4220 9640 4200 10 line
9640 4200 9670 4200 10 line
9670 4200 9690 4210 10 line
9690 4210 9700 4230 10 line
9700 4230 9700 4260 10 line
9700 4260 9690 4280 10 line
9690 4280 9670 4290 10 line
9670 4290 9640 4290 10 line
9640 4290 9620 4280 10 line
9620 4280 9610 4270 10 line
9760 4330 9740 4200 10 line
9740 4200 9750 4240 10 line
9750 4240 9730 4240 10 line
9730 4240 9810 4240 10 line
9730 4290 9810 4290 10 line
9780 4200 9800 4330 10 line
9840 4230 9850 4220 10 line
9850 4220 9870 4210 10 line
9870 4210 9890 4210 10 line
9890 4210 9910 4220 10 line
9910 4220 9920 4230 10 line
9920 4230 9920 4240 10 line
9920 4240 9910 4250 10 line
9910 4250 9850 4290 10 line
9850 4290 9840 4290 10 line
9840 4290 9840 4300 10 line
9840 4300 9850 4310 10 line
9850 4310 9870 4320 10 line
9870 4320 9890 4320 10 line
9890 4320 9910 4310 10 line
9910 4310 9920 4300 10 line
9880 4190 9880 4340 10 line
grestore
gsave
11200 4230 11210 4220 10 line
11210 4220 11230 4210 10 line
11230 4210 11250 4210 10 line
11250 4210 11270 4220 10 line
11270 4220 11280 4230 10 line
11280 4230 11280 4240 10 line
11280 4240 11270 4250 10 line
11270 4250 11210 4290 10 line
11210 4290 11200 4290 10 line
11200 4290 11200 4300 10 line
11200 4300 11210 4310 10 line
11210 4310 11230 4320 10 line
11230 4320 11250 4320 10 line
11250 4320 11270 4310 10 line
11270 4310 11280 4300 10 line
11240 4190 11240 4340 10 line
11340 4200 11340 4330 10 line
11340 4330 11405 4330 10 line
11405 4330 11425 4310 10 line
11425 4310 11425 4290 10 line
11425 4290 11405 4270 10 line
11405 4270 11340 4270 10 line
11380 4270 11435 4200 10 line
11540 4210 11520 4200 10 line
11520 4200 11500 4200 10 line
11500 4200 11480 4210 10 line
11480 4210 11470 4230 10 line
11470 4230 11470 4250 10 line
11470 4250 11480 4270 10 line
11480 4270 11500 4280 10 line
11500 4280 11520 4280 10 line
11520 4280 11540 4270 10 line
11470 4240 11550 4240 10 line
11550 4240 11550 4250 10 line
11550 4250 11540 4270 10 line
11570 4280 11610 4200 10 line
11610 4200 11650 4280 10 line
11680 4200 11680 4280 10 line
11680 4305 11680 4310 10 line
11710 4210 11730 4200 10 line
11730 4200 11760 4200 10 line
11760 4200 11780 4210 10 line
11780 4210 11780 4220 10 line
11780 4220 11770 4230 10 line
11770 4230 11720 4250 10 line
11720 4250 11710 4260 10 line
11710 4260 11710 4270 10 line
11710 4270 11730 4280 10 line
11730 4280 11760 4280 10 line
11760 4280 11780 4270 10 line
11810 4200 11810 4280 10 line
11810 4305 11810 4310 10 line
11870 4200 11850 4210 10 line
11850 4210 11840 4230 10 line
11840 4230 11840 4250 10 line
11840 4250 11850 4270 10 line
11850 4270 11870 4280 10 line
11870 4280 11880 4280 10 line
11880 4280 11900 4270 10 line
11900 4270 11910 4250 10 line
11910 4250 11910 4230 10 line
11910 4230 11900 4210 10 line
11900 4210 11880 4200 10 line
11880 4200 11870 4200 10 line
11940 4200 11940 4280 10 line
11940 4270 11960 4280 10 line
11960 4280 11990 4280 10 line
11990 4280 12010 4260 10 line
12010 4260 12010 4200 10 line
12055 4225 12060 4225 10 line
12060 4225 12065 4230 10 line
12065 4230 12065 4235 10 line
12065 4235 12060 4240 10 line
12060 4240 12055 4240 10 line
12055 4240 12050 4235 10 line
12050 4235 12050 4230 10 line
12050 4230 12055 4225 10 line
12055 4295 12060 4295 10 line
12060 4295 12065 4300 10 line
12065 4300 12065 4305 10 line
12065 4305 12060 4310 10 line
12060 4310 12055 4310 10 line
12055 4310 12050 4305 10 line
12050 4305 12050 4300 10 line
12050 4300 12055 4295 10 line
12185 4200 12165 4210 10 line
12165 4210 12155 4220 10 line
12155 4220 12155 4240 10 line
12155 4240 12175 4260 10 line
12175 4260 12225 4280 10 line
12225 4280 12235 4300 10 line
12235 4300 12235 4310 10 line
12235 4310 12215 4330 10 line
12215 4330 12185 4330 10 line
12185 4330 12165 4310 10 line
12165 4310 12165 4300 10 line
12165 4300 12175 4280 10 line
12175 4280 12225 4260 10 line
12225 4260 12245 4240 10 line
12245 4240 12245 4220 10 line
12245 4220 12235 4210 10 line
12235 4210 12215 4200 10 line
12215 4200 12185 4200 10 line
12265 4210 12285 4200 10 line
12285 4200 12315 4200 10 line
12315 4200 12335 4210 10 line
12335 4210 12345 4230 10 line
12345 4230 12345 4260 10 line
12345 4260 12335 4280 10 line
12335 4280 12315 4290 10 line
12315 4290 12285 4290 10 line
12285 4290 12265 4280 10 line
12265 4280 12275 4330 10 line
12275 4330 12335 4330 10 line
12365 4210 12385 4200 10 line
12385 4200 12415 4200 10 line
12415 4200 12435 4210 10 line
12435 4210 12445 4230 10 line
12445 4230 12445 4260 10 line
12445 4260 12435 4280 10 line
12435 4280 12415 4290 10 line
12415 4290 12385 4290 10 line
12385 4290 12365 4280 10 line
12365 4280 12375 4330 10 line
12375 4330 12435 4330 10 line
12520 4230 12530 4220 10 line
12530 4220 12550 4210 10 line
12550 4210 12570 4210 10 line
12570 4210 12590 4220 10 line
12590 4220 12600 4230 10 line
12600 4230 12600 4240 10 line
12600 4240 12590 4250 10 line
12590 4250 12530 4290 10 line
12530 4290 12520 4290 10 line
12520 4290 12520 4300 10 line
12520 4300 12530 4310 10 line
12530 4310 12550 4320 10 line
12550 4320 12570 4320 10 line
12570 4320 12590 4310 10 line
12590 4310 12600 4300 10 line
12560 4190 12560 4340 10 line
grestore
gsave
11300 3930 11310 3920 10 line
11310 3920 11330 3910 10 line
11330 3910 11350 3910 10 line
11350 3910 11370 3920 10 line
11370 3920 11380 3930 10 line
11380 3930 11380 3940 10 line
11380 3940 11370 3950 10 line
11370 3950 11310 3990 10 line
11310 3990 11300 3990 10 line
11300 3990 11300 4000 10 line
11300 4000 11310 4010 10 line
11310 4010 11330 4020 10 line
11330 4020 11350 4020 10 line
11350 4020 11370 4010 10 line
11370 4010 11380 4000 10 line
11340 3890 11340 4040 10 line
11440 3900 11490 4030 10 line
11490 4030 11540 3900 10 line
11460 3950 11520 3950 10 line
11585 3980 11585 3920 10 line
11585 3920 11605 3900 10 line
11605 3900 11635 3900 10 line
11635 3900 11655 3910 10 line
11655 3900 11655 3980 10 line
11680 3990 11720 3990 10 line
11700 4030 11700 3910 10 line
11700 3910 11710 3900 10 line
11710 3900 11720 3900 10 line
11740 3900 11740 4030 10 line
11740 3970 11760 3980 10 line
11760 3980 11790 3980 10 line
11790 3980 11810 3960 10 line
11810 3960 11810 3900 10 line
11870 3900 11850 3910 10 line
11850 3910 11840 3930 10 line
11840 3930 11840 3950 10 line
11840 3950 11850 3970 10 line
11850 3970 11870 3980 10 line
11870 3980 11880 3980 10 line
11880 3980 11900 3970 10 line
11900 3970 11910 3950 10 line
11910 3950 11910 3930 10 line
11910 3930 11900 3910 10 line
11900 3910 11880 3900 10 line
11880 3900 11870 3900 10 line
11940 3900 11940 3980 10 line
11940 3970 11960 3980 10 line
11960 3980 11980 3980 10 line
11980 3980 11990 3970 10 line
12025 3925 12030 3925 10 line
12030 3925 12035 3930 10 line
12035 3930 12035 3935 10 line
12035 3935 12030 3940 10 line
12030 3940 12025 3940 10 line
12025 3940 12020 3935 10 line
12020 3935 12020 3930 10 line
12020 3930 12025 3925 10 line
12025 3995 12030 3995 10 line
12030 3995 12035 4000 10 line
12035 4000 12035 4005 10 line
12035 4005 12030 4010 10 line
12030 4010 12025 4010 10 line
12025 4010 12020 4005 10 line
12020 4005 12020 4000 10 line
12020 4000 12025 3995 10 line
12135 4005 12135 4010 10 line
12110 3870 12125 3870 10 line
12125 3870 12135 3880 10 line
12135 3880 12135 3980 10 line
12175 3900 12175 4030 10 line
12175 3910 12195 3900 10 line
12195 3900 12215 3900 10 line
12215 3900 12235 3910 10 line
12235 3910 12245 3930 10 line
12245 3930 12245 3950 10 line
12245 3950 12235 3970 10 line
12235 3970 12215 3980 10 line
12215 3980 12195 3980 10 line
12195 3980 12175 3970 10 line
12340 3930 12350 3920 10 line
12350 3920 12370 3910 10 line
12370 3910 12390 3910 10 line
12390 3910 12410 3920 10 line
12410 3920 12420 3930 10 line
12420 3930 12420 3940 10 line
12420 3940 12410 3950 10 line
12410 3950 12350 3990 10 line
12350 3990 12340 3990 10 line
12340 3990 12340 4000 10 line
12340 4000 12350 4010 10 line
12350 4010 12370 4020 10 line
12370 4020 12390 4020 10 line
12390 4020 12410 4010 10 line
12410 4010 12420 4000 10 line
12380 3890 12380 4040 10 line
grestore
gsave
7500 4510 7520 4500 10 line
7520 4500 7550 4500 10 line
7550 4500 7570 4510 10 line
7570 4510 7570 4520 10 line
7570 4520 7560 4530 10 line
7560 4530 7510 4550 10 line
7510 4550 7500 4560 10 line
7500 4560 7500 4570 10 line
7500 4570 7520 4580 10 line
7520 4580 7550 4580 10 line
7550 4580 7570 4570 10 line
7590 4580 7590 4520 10 line
7590 4520 7610 4500 10 line
7610 4500 7640 4500 10 line
7640 4500 7660 4510 10 line
7660 4500 7660 4580 10 line
7685 4500 7685 4630 10 line
7685 4510 7705 4500 10 line
7705 4500 7725 4500 10 line
7725 4500 7745 4510 10 line
7745 4510 7755 4530 10 line
7755 4530 7755 4550 10 line
7755 4550 7745 4570 10 line
7745 4570 7725 4580 10 line
7725 4580 7705 4580 10 line
7705 4580 7685 4570 10 line
7795 4630 7795 4540 10 line
7795 4540 7805 4520 10 line
7805 4520 7815 4510 10 line
7815 4510 7835 4500 10 line
7835 4500 7860 4500 10 line
7860 4500 7880 4510 10 line
7880 4510 7890 4520 10 line
7890 4520 7900 4540 10 line
7900 4540 7900 4630 10 line
7930 4530 7940 4510 10 line
7940 4510 7960 4500 10 line
7960 4500 7990 4500 10 line
7990 4500 8010 4510 10 line
8010 4510 8020 4530 10 line
8020 4530 8020 4540 10 line
8020 4540 8000 4560 10 line
8000 4560 7940 4590 10 line
7940 4590 7930 4600 10 line
7930 4600 7930 4610 10 line
7930 4610 7940 4620 10 line
7940 4620 7960 4630 10 line
7960 4630 7990 4630 10 line
7990 4630 8010 4620 10 line
8055 4500 8055 4630 10 line
8055 4630 8105 4630 10 line
8105 4630 8130 4620 10 line
8130 4620 8140 4600 10 line
8140 4600 8140 4590 10 line
8140 4590 8120 4570 10 line
8120 4570 8055 4570 10 line
8055 4500 8120 4500 10 line
8120 4500 8140 4510 10 line
8140 4510 8150 4530 10 line
8150 4530 8150 4540 10 line
8150 4540 8140 4560 10 line
8140 4560 8120 4570 10 line
8210 4495 8215 4495 10 line
8215 4495 8220 4500 10 line
8220 4500 8220 4505 10 line
8220 4505 8215 4510 10 line
8215 4510 8210 4510 10 line
8210 4510 8205 4505 10 line
8205 4505 8205 4500 10 line
8205 4500 8210 4495 10 line
8260 4510 8280 4500 10 line
8280 4500 8310 4500 10 line
8310 4500 8330 4510 10 line
8330 4510 8330 4520 10 line
8330 4520 8320 4530 10 line
8320 4530 8270 4550 10 line
8270 4550 8260 4560 10 line
8260 4560 8260 4570 10 line
8260 4570 8280 4580 10 line
8280 4580 8310 4580 10 line
8310 4580 8330 4570 10 line
8420 4510 8400 4500 10 line
8400 4500 8380 4500 10 line
8380 4500 8360 4510 10 line
8360 4510 8350 4530 10 line
8350 4530 8350 4550 10 line
8350 4550 8360 4570 10 line
8360 4570 8380 4580 10 line
8380 4580 8400 4580 10 line
8400 4580 8420 4570 10 line
8460 4500 8460 4630 10 line
8460 4570 8480 4580 10 line
8480 4580 8510 4580 10 line
8510 4580 8530 4560 10 line
8530 4560 8530 4500 10 line
grestore
gsave
8984 4809 8984 4991 10 line
8984 4991 9075 4991 10 line
9075 4991 9103 4963 10 line
9103 4963 9103 4935 10 line
9103 4935 9075 4907 10 line
9075 4907 8984 4907 10 line
9159 4809 9159 4991 10 line
9159 4907 9187 4921 10 line
9187 4921 9229 4921 10 line
9229 4921 9257 4893 10 line
9257 4893 9257 4809 10 line
9299 4921 9355 4809 10 line
9397 4921 9341 4781 10 line
9341 4781 9327 4767 10 line
9327 4767 9313 4767 10 line
9439 4823 9467 4809 10 line
9467 4809 9509 4809 10 line
9509 4809 9537 4823 10 line
9537 4823 9537 4837 10 line
9537 4837 9523 4851 10 line
9523 4851 9453 4879 10 line
9453 4879 9439 4893 10 line
9439 4893 9439 4907 10 line
9439 4907 9467 4921 10 line
9467 4921 9509 4921 10 line
9509 4921 9537 4907 10 line
9579 4809 9579 4921 10 line
9579 4956 9579 4963 10 line
9719 4823 9691 4809 10 line
9691 4809 9663 4809 10 line
9663 4809 9635 4823 10 line
9635 4823 9621 4851 10 line
9621 4851 9621 4879 10 line
9621 4879 9635 4907 10 line
9635 4907 9663 4921 10 line
9663 4921 9691 4921 10 line
9691 4921 9719 4907 10 line
9887 4809 9873 4823 10 line
9873 4823 9873 4893 10 line
9873 4893 9845 4921 10 line
9845 4921 9803 4921 10 line
9803 4921 9789 4907 10 line
9873 4823 9845 4809 10 line
9845 4809 9803 4809 10 line
9803 4809 9775 4823 10 line
9775 4823 9775 4837 10 line
9775 4837 9803 4865 10 line
9803 4865 9873 4865 10 line
9957 4809 9957 4991 10 line
10083 4991 10083 4865 10 line
10083 4865 10097 4837 10 line
10097 4837 10111 4823 10 line
10111 4823 10139 4809 10 line
10139 4809 10174 4809 10 line
10174 4809 10202 4823 10 line
10202 4823 10216 4837 10 line
10216 4837 10230 4865 10 line
10230 4865 10230 4991 10 line
10272 4851 10286 4823 10 line
10286 4823 10314 4809 10 line
10314 4809 10356 4809 10 line
10356 4809 10384 4823 10 line
10384 4823 10398 4851 10 line
10398 4851 10398 4865 10 line
10398 4865 10370 4893 10 line
10370 4893 10286 4935 10 line
10286 4935 10272 4949 10 line
10272 4949 10272 4963 10 line
10272 4963 10286 4977 10 line
10286 4977 10314 4991 10 line
10314 4991 10356 4991 10 line
10356 4991 10384 4977 10 line
10447 4809 10447 4991 10 line
10447 4991 10517 4991 10 line
10517 4991 10552 4977 10 line
10552 4977 10566 4949 10 line
10566 4949 10566 4935 10 line
10566 4935 10538 4907 10 line
10538 4907 10447 4907 10 line
10447 4809 10538 4809 10 line
10538 4809 10566 4823 10 line
10566 4823 10580 4851 10 line
10580 4851 10580 4865 10 line
10580 4865 10566 4893 10 line
10566 4893 10538 4907 10 line
10825 4823 10797 4809 10 line
10797 4809 10769 4809 10 line
10769 4809 10741 4823 10 line
10741 4823 10727 4851 10 line
10727 4851 10727 4879 10 line
10727 4879 10741 4907 10 line
10741 4907 10769 4921 10 line
10769 4921 10797 4921 10 line
10797 4921 10825 4907 10 line
10923 4809 10895 4823 10 line
10895 4823 10881 4851 10 line
10881 4851 10881 4879 10 line
10881 4879 10895 4907 10 line
10895 4907 10923 4921 10 line
10923 4921 10937 4921 10 line
10937 4921 10965 4907 10 line
10965 4907 10979 4879 10 line
10979 4879 10979 4851 10 line
10979 4851 10965 4823 10 line
10965 4823 10937 4809 10 line
10937 4809 10923 4809 10 line
11021 4809 11021 4921 10 line
11021 4907 11049 4921 10 line
11049 4921 11091 4921 10 line
11091 4921 11119 4893 10 line
11119 4893 11119 4809 10 line
11161 4809 11161 4921 10 line
11161 4907 11189 4921 10 line
11189 4921 11231 4921 10 line
11231 4921 11259 4893 10 line
11259 4893 11259 4809 10 line
11399 4823 11371 4809 10 line
11371 4809 11343 4809 10 line
11343 4809 11315 4823 10 line
11315 4823 11301 4851 10 line
11301 4851 11301 4879 10 line
11301 4879 11315 4907 10 line
11315 4907 11343 4921 10 line
11343 4921 11371 4921 10 line
11371 4921 11399 4907 10 line
11301 4865 11413 4865 10 line
11413 4865 11413 4879 10 line
11413 4879 11399 4907 10 line
11539 4823 11511 4809 10 line
11511 4809 11483 4809 10 line
11483 4809 11455 4823 10 line
11455 4823 11441 4851 10 line
11441 4851 11441 4879 10 line
11441 4879 11455 4907 10 line
11455 4907 11483 4921 10 line
11483 4921 11511 4921 10 line
11511 4921 11539 4907 10 line
11595 4935 11651 4935 10 line
11623 4991 11623 4823 10 line
11623 4823 11637 4809 10 line
11637 4809 11651 4809 10 line
11693 4809 11693 4921 10 line
11693 4956 11693 4963 10 line
11777 4809 11749 4823 10 line
11749 4823 11735 4851 10 line
11735 4851 11735 4879 10 line
11735 4879 11749 4907 10 line
11749 4907 11777 4921 10 line
11777 4921 11791 4921 10 line
11791 4921 11819 4907 10 line
11819 4907 11833 4879 10 line
11833 4879 11833 4851 10 line
11833 4851 11819 4823 10 line
11819 4823 11791 4809 10 line
11791 4809 11777 4809 10 line
11875 4809 11875 4921 10 line
11875 4907 11903 4921 10 line
11903 4921 11945 4921 10 line
11945 4921 11973 4893 10 line
11973 4893 11973 4809 10 line
grestore
2700 3800 14300 3800 8 line
14300 3800 14300 12000 8 line
14300 12000 2700 12000 8 line
2700 12000 2700 3800 8 line
gsave
8700 8775 8900 8775 5 line
8700 8775 8800 8900 5 line
8800 8900 8900 8775 5 line
8700 8900 8875 8900 5 line
8800 9000 8800 8900 10 line
8900 8600 8900 8700 10 line
8800 8775 8800 8900 10 line
9000 9000 9000 8900 10 line
8925 8775 9100 8775 5 line
9000 8775 8900 8900 5 line
9100 8900 9000 8775 5 line
8900 8900 9100 8900 5 line
9000 8775 9000 8900 10 line
9000 8800 9000 8700 10 line
9000 8700 8800 8700 10 line
8800 8700 8800 8800 10 line
grestore
gsave
8400 8900 8436 8900 10 line
8436 8900 8454 8912 10 line
8454 8912 8460 8930 10 line
8460 8930 8460 8948 10 line
8460 8948 8454 8966 10 line
8454 8966 8436 8978 10 line
8436 8978 8400 8978 10 line
8400 8978 8400 8900 10 line
8490 8900 8490 8978 10 line
8490 8978 8484 8966 10 line
8484 8966 8478 8960 10 line
grestore
gsave
8275 8775 8275 8853 10 line
8275 8853 8305 8853 10 line
8305 8853 8320 8847 10 line
8320 8847 8326 8835 10 line
8326 8835 8326 8829 10 line
8326 8829 8314 8817 10 line
8314 8817 8275 8817 10 line
8275 8775 8314 8775 10 line
8314 8775 8326 8781 10 line
8326 8781 8332 8793 10 line
8332 8793 8332 8799 10 line
8332 8799 8326 8811 10 line
8326 8811 8314 8817 10 line
8362 8775 8392 8853 10 line
8392 8853 8422 8775 10 line
8374 8805 8410 8805 10 line
8449 8853 8482 8775 10 line
8482 8775 8515 8853 10 line
8536 8781 8548 8775 10 line
8548 8775 8566 8775 10 line
8566 8775 8578 8787 10 line
8578 8787 8584 8805 10 line
8584 8805 8584 8829 10 line
8584 8829 8578 8847 10 line
8578 8847 8566 8853 10 line
8566 8853 8548 8853 10 line
8548 8853 8536 8847 10 line
8536 8847 8530 8835 10 line
8530 8835 8530 8823 10 line
8530 8823 8536 8811 10 line
8536 8811 8548 8805 10 line
8548 8805 8566 8805 10 line
8566 8805 8578 8811 10 line
8578 8811 8584 8817 10 line
8614 8781 8626 8775 10 line
8626 8775 8644 8775 10 line
8644 8775 8656 8787 10 line
8656 8787 8662 8805 10 line
8662 8805 8662 8829 10 line
8662 8829 8656 8847 10 line
8656 8847 8644 8853 10 line
8644 8853 8626 8853 10 line
8626 8853 8614 8847 10 line
8614 8847 8608 8835 10 line
8608 8835 8608 8823 10 line
8608 8823 8614 8811 10 line
8614 8811 8626 8805 10 line
8626 8805 8644 8805 10 line
8644 8805 8656 8811 10 line
8656 8811 8662 8817 10 line
grestore
gsave
9200 8775 9400 8775 5 line
9200 8775 9300 8900 5 line
9300 8900 9400 8775 5 line
9200 8900 9375 8900 5 line
9300 9000 9300 8900 10 line
9400 8600 9400 8700 10 line
9300 8775 9300 8900 10 line
9500 9000 9500 8900 10 line
9425 8775 9600 8775 5 line
9500 8775 9400 8900 5 line
9600 8900 9500 8775 5 line
9400 8900 9600 8900 5 line
9500 8775 9500 8900 10 line
9500 8800 9500 8700 10 line
9500 8700 9300 8700 10 line
9300 8700 9300 8800 10 line
grestore
gsave
9625 8875 9661 8875 10 line
9661 8875 9679 8887 10 line
9679 8887 9685 8905 10 line
9685 8905 9685 8923 10 line
9685 8923 9679 8941 10 line
9679 8941 9661 8953 10 line
9661 8953 9625 8953 10 line
9625 8953 9625 8875 10 line
9751 8875 9751 8953 10 line
9751 8953 9703 8899 10 line
9703 8899 9757 8899 10 line
grestore
gsave
9625 8750 9625 8828 10 line
9625 8828 9655 8828 10 line
9655 8828 9670 8822 10 line
9670 8822 9676 8810 10 line
9676 8810 9676 8804 10 line
9676 8804 9664 8792 10 line
9664 8792 9625 8792 10 line
9625 8750 9664 8750 10 line
9664 8750 9676 8756 10 line
9676 8756 9682 8768 10 line
9682 8768 9682 8774 10 line
9682 8774 9676 8786 10 line
9676 8786 9664 8792 10 line
9712 8750 9742 8828 10 line
9742 8828 9772 8750 10 line
9724 8780 9760 8780 10 line
9799 8828 9832 8750 10 line
9832 8750 9865 8828 10 line
9886 8756 9898 8750 10 line
9898 8750 9916 8750 10 line
9916 8750 9928 8762 10 line
9928 8762 9934 8780 10 line
9934 8780 9934 8804 10 line
9934 8804 9928 8822 10 line
9928 8822 9916 8828 10 line
9916 8828 9898 8828 10 line
9898 8828 9886 8822 10 line
9886 8822 9880 8810 10 line
9880 8810 9880 8798 10 line
9880 8798 9886 8786 10 line
9886 8786 9898 8780 10 line
9898 8780 9916 8780 10 line
9916 8780 9928 8786 10 line
9928 8786 9934 8792 10 line
9964 8756 9976 8750 10 line
9976 8750 9994 8750 10 line
9994 8750 10006 8762 10 line
10006 8762 10012 8780 10 line
10012 8780 10012 8804 10 line
10012 8804 10006 8822 10 line
10006 8822 9994 8828 10 line
9994 8828 9976 8828 10 line
9976 8828 9964 8822 10 line
9964 8822 9958 8810 10 line
9958 8810 9958 8798 10 line
9958 8798 9964 8786 10 line
9964 8786 9976 8780 10 line
9976 8780 9994 8780 10 line
9994 8780 10006 8786 10 line
10006 8786 10012 8792 10 line
grestore
gsave
8500 8300 8400 8300 10 line
8100 8300 8200 8300 10 line
8200 8250 8400 8250 5 line
8400 8250 8400 8350 5 line
8400 8350 8200 8350 5 line
8200 8350 8200 8250 5 line
8150 8325 8175 8325 5 line
8175 8325 8175 8350 5 line
8175 8350 8150 8350 5 line
8150 8350 8150 8325 5 line
grestore
gsave
8200 8475 8200 8553 10 line
8200 8553 8239 8553 10 line
8239 8553 8251 8541 10 line
8251 8541 8251 8529 10 line
8251 8529 8239 8517 10 line
8239 8517 8200 8517 10 line
8224 8517 8257 8475 10 line
8290 8475 8290 8553 10 line
8290 8553 8284 8541 10 line
8284 8541 8278 8535 10 line
grestore
gsave
8248 8447 8236 8453 10 line
8236 8453 8218 8453 10 line
8218 8453 8206 8441 10 line
8206 8441 8200 8423 10 line
8200 8423 8200 8405 10 line
8200 8405 8206 8387 10 line
8206 8387 8218 8375 10 line
8218 8375 8236 8375 10 line
8236 8375 8248 8381 10 line
8248 8381 8254 8393 10 line
8254 8393 8254 8411 10 line
8254 8411 8248 8423 10 line
8248 8423 8236 8429 10 line
8236 8429 8218 8429 10 line
8218 8429 8206 8423 10 line
8206 8423 8200 8417 10 line
8290 8375 8278 8381 10 line
8278 8381 8272 8387 10 line
8272 8387 8272 8399 10 line
8272 8399 8284 8411 10 line
8284 8411 8314 8423 10 line
8314 8423 8320 8435 10 line
8320 8435 8320 8441 10 line
8320 8441 8308 8453 10 line
8308 8453 8290 8453 10 line
8290 8453 8278 8441 10 line
8278 8441 8278 8435 10 line
8278 8435 8284 8423 10 line
8284 8423 8314 8411 10 line
8314 8411 8326 8399 10 line
8326 8399 8326 8387 10 line
8326 8387 8320 8381 10 line
8320 8381 8308 8375 10 line
8308 8375 8290 8375 10 line
8338 8375 8338 8453 10 line
8338 8453 8377 8453 10 line
8377 8453 8389 8441 10 line
8389 8441 8389 8429 10 line
8389 8429 8377 8417 10 line
8377 8417 8338 8417 10 line
8362 8417 8395 8375 10 line
grestore
gsave
8500 8000 8400 8000 10 line
8100 8000 8200 8000 10 line
8200 7950 8400 7950 5 line
8400 7950 8400 8050 5 line
8400 8050 8200 8050 5 line
8200 8050 8200 7950 5 line
8150 8025 8175 8025 5 line
8175 8025 8175 8050 5 line
8175 8050 8150 8050 5 line
8150 8050 8150 8025 5 line
grestore
gsave
8200 8075 8200 8153 10 line
8200 8153 8239 8153 10 line
8239 8153 8251 8141 10 line
8251 8141 8251 8129 10 line
8251 8129 8239 8117 10 line
8239 8117 8200 8117 10 line
8224 8117 8257 8075 10 line
8332 8075 8278 8075 10 line
8278 8075 8290 8087 10 line
8290 8087 8326 8111 10 line
8326 8111 8332 8123 10 line
8332 8123 8332 8135 10 line
8332 8135 8326 8147 10 line
8326 8147 8314 8153 10 line
8314 8153 8302 8153 10 line
8302 8153 8290 8147 10 line
8290 8147 8284 8141 10 line
grestore
gsave
8248 7922 8236 7928 10 line
8236 7928 8218 7928 10 line
8218 7928 8206 7916 10 line
8206 7916 8200 7898 10 line
8200 7898 8200 7880 10 line
8200 7880 8206 7862 10 line
8206 7862 8218 7850 10 line
8218 7850 8236 7850 10 line
8236 7850 8248 7856 10 line
8248 7856 8254 7868 10 line
8254 7868 8254 7886 10 line
8254 7886 8248 7898 10 line
8248 7898 8236 7904 10 line
8236 7904 8218 7904 10 line
8218 7904 8206 7898 10 line
8206 7898 8200 7892 10 line
8290 7850 8278 7856 10 line
8278 7856 8272 7862 10 line
8272 7862 8272 7874 10 line
8272 7874 8284 7886 10 line
8284 7886 8314 7898 10 line
8314 7898 8320 7910 10 line
8320 7910 8320 7916 10 line
8320 7916 8308 7928 10 line
8308 7928 8290 7928 10 line
8290 7928 8278 7916 10 line
8278 7916 8278 7910 10 line
8278 7910 8284 7898 10 line
8284 7898 8314 7886 10 line
8314 7886 8326 7874 10 line
8326 7874 8326 7862 10 line
8326 7862 8320 7856 10 line
8320 7856 8308 7850 10 line
8308 7850 8290 7850 10 line
8338 7850 8338 7928 10 line
8338 7928 8377 7928 10 line
8377 7928 8389 7916 10 line
8389 7916 8389 7904 10 line
8389 7904 8377 7892 10 line
8377 7892 8338 7892 10 line
8362 7892 8395 7850 10 line
grestore
gsave
7400 7275 7600 7275 5 line
7400 7275 7500 7400 5 line
7500 7400 7600 7275 5 line
7400 7400 7600 7400 5 line
7500 7500 7500 7400 10 line
7500 7200 7500 7275 10 line
7500 7275 7500 7400 10 line
7400 7400 7400 7350 5 line
grestore
gsave
7150 7375 7186 7375 10 line
7186 7375 7204 7387 10 line
7204 7387 7210 7405 10 line
7210 7405 7210 7423 10 line
7210 7423 7204 7441 10 line
7204 7441 7186 7453 10 line
7186 7453 7150 7453 10 line
7150 7453 7150 7375 10 line
7282 7375 7228 7375 10 line
7228 7375 7240 7387 10 line
7240 7387 7276 7411 10 line
7276 7411 7282 7423 10 line
7282 7423 7282 7435 10 line
7282 7435 7276 7447 10 line
7276 7447 7264 7453 10 line
7264 7453 7252 7453 10 line
7252 7453 7240 7447 10 line
7240 7447 7234 7441 10 line
grestore
gsave
7075 7353 7129 7353 10 line
7129 7353 7075 7275 10 line
7075 7275 7129 7275 10 line
7156 7287 7162 7281 10 line
7162 7281 7174 7275 10 line
7174 7275 7186 7275 10 line
7186 7275 7198 7281 10 line
7198 7281 7204 7293 10 line
7204 7293 7204 7305 10 line
7204 7305 7192 7317 10 line
7192 7317 7180 7317 10 line
7192 7317 7204 7329 10 line
7204 7329 7204 7335 10 line
7204 7335 7198 7347 10 line
7198 7347 7186 7353 10 line
7186 7353 7174 7353 10 line
7174 7353 7162 7347 10 line
7162 7347 7156 7341 10 line
7222 7353 7255 7275 10 line
7255 7275 7288 7353 10 line
7351 7347 7339 7353 10 line
7339 7353 7321 7353 10 line
7321 7353 7309 7341 10 line
7309 7341 7303 7323 10 line
7303 7323 7303 7305 10 line
7303 7305 7309 7287 10 line
7309 7287 7321 7275 10 line
7321 7275 7339 7275 10 line
7339 7275 7351 7281 10 line
7351 7281 7357 7293 10 line
7357 7293 7357 7311 10 line
7357 7311 7351 7323 10 line
7351 7323 7339 7329 10 line
7339 7329 7321 7329 10 line
7321 7329 7309 7323 10 line
7309 7323 7303 7317 10 line
grestore
gsave
7700 7275 7900 7275 5 line
7700 7275 7800 7400 5 line
7800 7400 7900 7275 5 line
7700 7400 7900 7400 5 line
7800 7500 7800 7400 10 line
7800 7200 7800 7275 10 line
7800 7275 7800 7400 10 line
7700 7400 7700 7350 5 line
grestore
gsave
7950 7375 7986 7375 10 line
7986 7375 8004 7387 10 line
8004 7387 8010 7405 10 line
8010 7405 8010 7423 10 line
8010 7423 8004 7441 10 line
8004 7441 7986 7453 10 line
7986 7453 7950 7453 10 line
7950 7453 7950 7375 10 line
8028 7387 8034 7381 10 line
8034 7381 8046 7375 10 line
8046 7375 8058 7375 10 line
8058 7375 8070 7381 10 line
8070 7381 8076 7393 10 line
8076 7393 8076 7405 10 line
8076 7405 8064 7417 10 line
8064 7417 8052 7417 10 line
8064 7417 8076 7429 10 line
8076 7429 8076 7435 10 line
8076 7435 8070 7447 10 line
8070 7447 8058 7453 10 line
8058 7453 8046 7453 10 line
8046 7453 8034 7447 10 line
8034 7447 8028 7441 10 line
grestore
gsave
7950 7353 8004 7353 10 line
8004 7353 7950 7275 10 line
7950 7275 8004 7275 10 line
8031 7287 8037 7281 10 line
8037 7281 8049 7275 10 line
8049 7275 8061 7275 10 line
8061 7275 8073 7281 10 line
8073 7281 8079 7293 10 line
8079 7293 8079 7305 10 line
8079 7305 8067 7317 10 line
8067 7317 8055 7317 10 line
8067 7317 8079 7329 10 line
8079 7329 8079 7335 10 line
8079 7335 8073 7347 10 line
8073 7347 8061 7353 10 line
8061 7353 8049 7353 10 line
8049 7353 8037 7347 10 line
8037 7347 8031 7341 10 line
8097 7353 8130 7275 10 line
8130 7275 8163 7353 10 line
8226 7347 8214 7353 10 line
8214 7353 8196 7353 10 line
8196 7353 8184 7341 10 line
8184 7341 8178 7323 10 line
8178 7323 8178 7305 10 line
8178 7305 8184 7287 10 line
8184 7287 8196 7275 10 line
8196 7275 8214 7275 10 line
8214 7275 8226 7281 10 line
8226 7281 8232 7293 10 line
8232 7293 8232 7311 10 line
8232 7311 8226 7323 10 line
8226 7323 8214 7329 10 line
8214 7329 8196 7329 10 line
8196 7329 8184 7323 10 line
8184 7323 8178 7317 10 line
grestore
gsave
6400 9725 50 0 360 5 darc
6400 9675 6400 9600 10 line
gsave
6275 9878 6308 9800 10 line
6308 9800 6341 9878 10 line
6398 9800 6380 9800 10 line
6380 9800 6362 9812 10 line
6362 9812 6356 9830 10 line
6356 9830 6356 9848 10 line
6356 9848 6362 9866 10 line
6362 9866 6380 9878 10 line
6380 9878 6398 9878 10 line
6398 9878 6416 9866 10 line
6398 9800 6416 9812 10 line
6482 9800 6464 9800 10 line
6464 9800 6446 9812 10 line
6446 9812 6440 9830 10 line
6440 9830 6440 9848 10 line
6440 9848 6446 9866 10 line
6446 9866 6464 9878 10 line
6464 9878 6482 9878 10 line
6482 9878 6500 9866 10 line
6482 9800 6500 9812 10 line
grestore
grestore
gsave
6700 7700 6700 7800 10 line
gsave
6616 7609 6634 7615 10 line
6634 7615 6640 7627 10 line
6640 7627 6640 7645 10 line
6640 7645 6616 7645 10 line
6616 7609 6598 7609 10 line
6598 7609 6580 7621 10 line
6580 7621 6574 7639 10 line
6574 7639 6574 7657 10 line
6574 7657 6580 7675 10 line
6580 7675 6598 7687 10 line
6598 7687 6616 7687 10 line
6616 7687 6634 7675 10 line
6664 7609 6664 7687 10 line
6664 7687 6724 7609 10 line
6724 7609 6724 7687 10 line
6748 7609 6784 7609 10 line
6784 7609 6802 7621 10 line
6802 7621 6808 7639 10 line
6808 7639 6808 7657 10 line
6808 7657 6802 7675 10 line
6802 7675 6784 7687 10 line
6784 7687 6748 7687 10 line
6748 7687 6748 7609 10 line
grestore
6600 7700 6800 7700 10 line
grestore
6400 9600 6400 7900 10 line
6700 7800 6300 7800 10 line
8100 8300 8000 8300 10 line
8000 8300 8000 8200 10 line
8000 8200 6300 8200 10 line
gsave
6500 8303 6500 8249 10 line
6500 8249 6506 8237 10 line
6506 8237 6512 8231 10 line
6512 8231 6524 8225 10 line
6524 8225 6539 8225 10 line
6539 8225 6551 8231 10 line
6551 8231 6557 8237 10 line
6557 8237 6563 8249 10 line
6563 8249 6563 8303 10 line
6581 8243 6587 8231 10 line
6587 8231 6599 8225 10 line
6599 8225 6617 8225 10 line
6617 8225 6629 8231 10 line
6629 8231 6635 8243 10 line
6635 8243 6635 8249 10 line
6635 8249 6623 8261 10 line
6623 8261 6587 8279 10 line
6587 8279 6581 8285 10 line
6581 8285 6581 8291 10 line
6581 8291 6587 8297 10 line
6587 8297 6599 8303 10 line
6599 8303 6617 8303 10 line
6617 8303 6629 8297 10 line
6656 8225 6656 8303 10 line
6656 8303 6686 8303 10 line
6686 8303 6701 8297 10 line
6701 8297 6707 8285 10 line
6707 8285 6707 8279 10 line
6707 8279 6695 8267 10 line
6695 8267 6656 8267 10 line
6656 8225 6695 8225 10 line
6695 8225 6707 8231 10 line
6707 8231 6713 8243 10 line
6713 8243 6713 8249 10 line
6713 8249 6707 8261 10 line
6707 8261 6695 8267 10 line
6743 8231 6803 8231 10 line
6818 8225 6818 8303 10 line
6818 8303 6854 8225 10 line
6854 8225 6890 8303 10 line
6890 8303 6890 8225 10 line
6914 8231 6974 8231 10 line
6989 8225 6989 8303 10 line
6989 8303 7028 8303 10 line
7028 8303 7040 8291 10 line
7040 8291 7040 8279 10 line
7040 8279 7028 8267 10 line
7028 8267 6989 8267 10 line
7013 8267 7046 8225 10 line
7067 8225 7097 8303 10 line
7097 8303 7127 8225 10 line
7079 8255 7115 8255 10 line
7154 8303 7178 8225 10 line
7178 8225 7202 8303 10 line
7202 8303 7226 8225 10 line
7226 8225 7250 8303 10 line
grestore
6300 8100 8000 8100 10 line
gsave
6500 8190 6500 8136 10 line
6500 8136 6506 8124 10 line
6506 8124 6512 8118 10 line
6512 8118 6524 8112 10 line
6524 8112 6539 8112 10 line
6539 8112 6551 8118 10 line
6551 8118 6557 8124 10 line
6557 8124 6563 8136 10 line
6563 8136 6563 8190 10 line
6581 8130 6587 8118 10 line
6587 8118 6599 8112 10 line
6599 8112 6617 8112 10 line
6617 8112 6629 8118 10 line
6629 8118 6635 8130 10 line
6635 8130 6635 8136 10 line
6635 8136 6623 8148 10 line
6623 8148 6587 8166 10 line
6587 8166 6581 8172 10 line
6581 8172 6581 8178 10 line
6581 8178 6587 8184 10 line
6587 8184 6599 8190 10 line
6599 8190 6617 8190 10 line
6617 8190 6629 8184 10 line
6656 8112 6656 8190 10 line
6656 8190 6686 8190 10 line
6686 8190 6701 8184 10 line
6701 8184 6707 8172 10 line
6707 8172 6707 8166 10 line
6707 8166 6695 8154 10 line
6695 8154 6656 8154 10 line
6656 8112 6695 8112 10 line
6695 8112 6707 8118 10 line
6707 8118 6713 8130 10 line
6713 8130 6713 8136 10 line
6713 8136 6707 8148 10 line
6707 8148 6695 8154 10 line
6743 8118 6803 8118 10 line
6818 8112 6818 8190 10 line
6818 8190 6857 8190 10 line
6857 8190 6869 8178 10 line
6869 8178 6869 8166 10 line
6869 8166 6857 8154 10 line
6857 8154 6818 8154 10 line
6893 8118 6953 8118 10 line
6968 8112 6968 8190 10 line
6968 8190 7007 8190 10 line
7007 8190 7019 8178 10 line
7019 8178 7019 8166 10 line
7019 8166 7007 8154 10 line
7007 8154 6968 8154 10 line
6992 8154 7025 8112 10 line
7046 8112 7076 8190 10 line
7076 8190 7106 8112 10 line
7058 8142 7094 8142 10 line
7133 8190 7157 8112 10 line
7157 8112 7181 8190 10 line
7181 8190 7205 8112 10 line
7205 8112 7229 8190 10 line
grestore
8000 8100 8000 8000 10 line
8000 8000 8100 8000 10 line
8500 8300 10500 8300 10 line
8500 8000 10500 8000 10 line
8900 8600 8900 8300 10 line
9400 8600 9400 8000 10 line
9000 9000 9000 9100 10 line
9000 9100 10100 9100 10 line
10100 9100 10100 8700 10 line
9500 9000 9500 9100 10 line
gsave
8800 9325 50 0 360 5 darc
8800 9275 8800 9200 10 line
gsave
8675 9478 8708 9400 10 line
8708 9400 8741 9478 10 line
8798 9400 8780 9400 10 line
8780 9400 8762 9412 10 line
8762 9412 8756 9430 10 line
8756 9430 8756 9448 10 line
8756 9448 8762 9466 10 line
8762 9466 8780 9478 10 line
8780 9478 8798 9478 10 line
8798 9478 8816 9466 10 line
8798 9400 8816 9412 10 line
8882 9400 8864 9400 10 line
8864 9400 8846 9412 10 line
8846 9412 8840 9430 10 line
8840 9430 8840 9448 10 line
8840 9448 8846 9466 10 line
8846 9466 8864 9478 10 line
8864 9478 8882 9478 10 line
8882 9478 8900 9466 10 line
8882 9400 8900 9412 10 line
grestore
grestore
gsave
9300 9325 50 0 360 5 darc
9300 9275 9300 9200 10 line
gsave
9175 9478 9208 9400 10 line
9208 9400 9241 9478 10 line
9298 9400 9280 9400 10 line
9280 9400 9262 9412 10 line
9262 9412 9256 9430 10 line
9256 9430 9256 9448 10 line
9256 9448 9262 9466 10 line
9262 9466 9280 9478 10 line
9280 9478 9298 9478 10 line
9298 9478 9316 9466 10 line
9298 9400 9316 9412 10 line
9382 9400 9364 9400 10 line
9364 9400 9346 9412 10 line
9346 9412 9340 9430 10 line
9340 9430 9340 9448 10 line
9340 9448 9346 9466 10 line
9346 9466 9364 9478 10 line
9364 9478 9382 9478 10 line
9382 9478 9400 9466 10 line
9382 9400 9400 9412 10 line
grestore
grestore
9300 9200 9300 9000 10 line
8800 9200 8800 9000 10 line
gsave
10100 8600 10100 8700 10 line
gsave
10016 8509 10034 8515 10 line
10034 8515 10040 8527 10 line
10040 8527 10040 8545 10 line
10040 8545 10016 8545 10 line
10016 8509 9998 8509 10 line
9998 8509 9980 8521 10 line
9980 8521 9974 8539 10 line
9974 8539 9974 8557 10 line
9974 8557 9980 8575 10 line
9980 8575 9998 8587 10 line
9998 8587 10016 8587 10 line
10016 8587 10034 8575 10 line
10064 8509 10064 8587 10 line
10064 8587 10124 8509 10 line
10124 8509 10124 8587 10 line
10148 8509 10184 8509 10 line
10184 8509 10202 8521 10 line
10202 8521 10208 8539 10 line
10208 8539 10208 8557 10 line
10208 8557 10202 8575 10 line
10202 8575 10184 8587 10 line
10184 8587 10148 8587 10 line
10148 8587 10148 8509 10 line
grestore
10000 8600 10200 8600 10 line
grestore
6300 7600 6500 7600 10 line
6500 7600 6500 7100 10 line
6500 7100 5700 7100 10 line
gsave
5800 7143 5806 7131 10 line
5806 7131 5818 7125 10 line
5818 7125 5836 7125 10 line
5836 7125 5848 7131 10 line
5848 7131 5854 7143 10 line
5854 7143 5854 7149 10 line
5854 7149 5842 7161 10 line
5842 7161 5806 7179 10 line
5806 7179 5800 7185 10 line
5800 7185 5800 7191 10 line
5800 7191 5806 7197 10 line
5806 7197 5818 7203 10 line
5818 7203 5836 7203 10 line
5836 7203 5848 7197 10 line
5875 7125 5875 7203 10 line
5932 7125 5932 7203 10 line
5875 7167 5932 7167 10 line
5968 7125 5968 7203 10 line
6043 7125 5989 7125 10 line
5989 7125 5989 7203 10 line
5989 7203 6043 7203 10 line
5989 7167 6031 7167 10 line
6076 7203 6076 7125 10 line
6076 7125 6124 7125 10 line
6142 7125 6178 7125 10 line
6178 7125 6196 7137 10 line
6196 7137 6202 7155 10 line
6202 7155 6202 7173 10 line
6202 7173 6196 7191 10 line
6196 7191 6178 7203 10 line
6178 7203 6142 7203 10 line
6142 7203 6142 7125 10 line
grestore
7500 7500 7500 8200 10 line
7800 7500 7800 8100 10 line
gsave
7500 7000 7500 7100 10 line
gsave
7416 6909 7434 6915 10 line
7434 6915 7440 6927 10 line
7440 6927 7440 6945 10 line
7440 6945 7416 6945 10 line
7416 6909 7398 6909 10 line
7398 6909 7380 6921 10 line
7380 6921 7374 6939 10 line
7374 6939 7374 6957 10 line
7374 6957 7380 6975 10 line
7380 6975 7398 6987 10 line
7398 6987 7416 6987 10 line
7416 6987 7434 6975 10 line
7464 6909 7464 6987 10 line
7464 6987 7524 6909 10 line
7524 6909 7524 6987 10 line
7548 6909 7584 6909 10 line
7584 6909 7602 6921 10 line
7602 6921 7608 6939 10 line
7608 6939 7608 6957 10 line
7608 6957 7602 6975 10 line
7602 6975 7584 6987 10 line
7584 6987 7548 6987 10 line
7548 6987 7548 6909 10 line
grestore
7400 7000 7600 7000 10 line
grestore
gsave
7800 7000 7800 7100 10 line
gsave
7716 6909 7734 6915 10 line
7734 6915 7740 6927 10 line
7740 6927 7740 6945 10 line
7740 6945 7716 6945 10 line
7716 6909 7698 6909 10 line
7698 6909 7680 6921 10 line
7680 6921 7674 6939 10 line
7674 6939 7674 6957 10 line
7674 6957 7680 6975 10 line
7680 6975 7698 6987 10 line
7698 6987 7716 6987 10 line
7716 6987 7734 6975 10 line
7764 6909 7764 6987 10 line
7764 6987 7824 6909 10 line
7824 6909 7824 6987 10 line
7848 6909 7884 6909 10 line
7884 6909 7902 6921 10 line
7902 6921 7908 6939 10 line
7908 6939 7908 6957 10 line
7908 6957 7902 6975 10 line
7902 6975 7884 6987 10 line
7884 6987 7848 6987 10 line
7848 6987 7848 6909 10 line
grestore
7700 7000 7900 7000 10 line
grestore
7500 7200 7500 7100 10 line
7800 7200 7800 7100 10 line
6400 7900 6300 7900 10 line
gsave
6300 7600 6200 7600 10 line
gsave
6212 7618 6224 7612 10 line
6224 7612 6242 7612 10 line
6242 7612 6254 7618 10 line
6254 7618 6260 7630 10 line
6260 7630 6260 7648 10 line
6260 7648 6254 7660 10 line
6254 7660 6242 7666 10 line
6242 7666 6224 7666 10 line
6224 7666 6212 7660 10 line
6212 7660 6218 7690 10 line
6218 7690 6254 7690 10 line
grestore
gsave
5755 7572 5761 7560 10 line
5761 7560 5773 7554 10 line
5773 7554 5791 7554 10 line
5791 7554 5803 7560 10 line
5803 7560 5809 7572 10 line
5809 7572 5809 7578 10 line
5809 7578 5797 7590 10 line
5797 7590 5761 7608 10 line
5761 7608 5755 7614 10 line
5755 7614 5755 7620 10 line
5755 7620 5761 7626 10 line
5761 7626 5773 7632 10 line
5773 7632 5791 7632 10 line
5791 7632 5803 7626 10 line
5830 7554 5830 7632 10 line
5887 7554 5887 7632 10 line
5830 7596 5887 7596 10 line
5923 7554 5923 7632 10 line
5998 7554 5944 7554 10 line
5944 7554 5944 7632 10 line
5944 7632 5998 7632 10 line
5944 7596 5986 7596 10 line
6031 7632 6031 7554 10 line
6031 7554 6079 7554 10 line
6097 7554 6133 7554 10 line
6133 7554 6151 7566 10 line
6151 7566 6157 7584 10 line
6157 7584 6157 7602 10 line
6157 7602 6151 7620 10 line
6151 7620 6133 7632 10 line
6133 7632 6097 7632 10 line
6097 7632 6097 7554 10 line
grestore
6300 8200 6200 8200 10 line
gsave
6224 8212 6224 8290 10 line
6224 8290 6218 8278 10 line
6218 8278 6212 8272 10 line
grestore
gsave
6001 8154 6037 8154 10 line
6037 8154 6055 8166 10 line
6055 8166 6061 8184 10 line
6061 8184 6061 8202 10 line
6061 8202 6055 8220 10 line
6055 8220 6037 8232 10 line
6037 8232 6001 8232 10 line
6001 8232 6001 8154 10 line
6079 8154 6079 8232 10 line
6079 8232 6115 8154 10 line
6115 8154 6151 8232 10 line
6151 8232 6151 8154 10 line
grestore
6300 8100 6200 8100 10 line
gsave
6266 8112 6212 8112 10 line
6212 8112 6224 8124 10 line
6224 8124 6260 8148 10 line
6260 8148 6266 8160 10 line
6266 8160 6266 8172 10 line
6266 8172 6260 8184 10 line
6260 8184 6248 8190 10 line
6248 8190 6236 8190 10 line
6236 8190 6224 8184 10 line
6224 8184 6218 8178 10 line
grestore
gsave
6022 8054 6058 8054 10 line
6058 8054 6076 8066 10 line
6076 8066 6082 8084 10 line
6082 8084 6082 8102 10 line
6082 8102 6076 8120 10 line
6076 8120 6058 8132 10 line
6058 8132 6022 8132 10 line
6022 8132 6022 8054 10 line
6100 8054 6100 8132 10 line
6100 8132 6139 8132 10 line
6139 8132 6151 8120 10 line
6151 8120 6151 8108 10 line
6151 8108 6139 8096 10 line
6139 8096 6100 8096 10 line
grestore
6300 7900 6200 7900 10 line
gsave
6212 7924 6218 7918 10 line
6218 7918 6230 7912 10 line
6230 7912 6242 7912 10 line
6242 7912 6254 7918 10 line
6254 7918 6260 7930 10 line
6260 7930 6260 7942 10 line
6260 7942 6248 7954 10 line
6248 7954 6236 7954 10 line
6248 7954 6260 7966 10 line
6260 7966 6260 7972 10 line
6260 7972 6254 7984 10 line
6254 7984 6242 7990 10 line
6242 7990 6230 7990 10 line
6230 7990 6218 7984 10 line
6218 7984 6212 7978 10 line
grestore
gsave
5926 7932 5959 7854 10 line
5959 7854 5992 7932 10 line
6049 7854 6031 7854 10 line
6031 7854 6013 7866 10 line
6013 7866 6007 7884 10 line
6007 7884 6007 7902 10 line
6007 7902 6013 7920 10 line
6013 7920 6031 7932 10 line
6031 7932 6049 7932 10 line
6049 7932 6067 7920 10 line
6049 7854 6067 7866 10 line
6133 7854 6115 7854 10 line
6115 7854 6097 7866 10 line
6097 7866 6091 7884 10 line
6091 7884 6091 7902 10 line
6091 7902 6097 7920 10 line
6097 7920 6115 7932 10 line
6115 7932 6133 7932 10 line
6133 7932 6151 7920 10 line
6133 7854 6151 7866 10 line
grestore
6300 7800 6200 7800 10 line
gsave
6260 7812 6260 7890 10 line
6260 7890 6212 7836 10 line
6212 7836 6266 7836 10 line
grestore
gsave
5965 7754 5983 7760 10 line
5983 7760 5989 7772 10 line
5989 7772 5989 7790 10 line
5989 7790 5965 7790 10 line
5965 7754 5947 7754 10 line
5947 7754 5929 7766 10 line
5929 7766 5923 7784 10 line
5923 7784 5923 7802 10 line
5923 7802 5929 7820 10 line
5929 7820 5947 7832 10 line
5947 7832 5965 7832 10 line
5965 7832 5983 7820 10 line
6013 7754 6013 7832 10 line
6013 7832 6073 7754 10 line
6073 7754 6073 7832 10 line
6097 7754 6133 7754 10 line
6133 7754 6151 7766 10 line
6151 7766 6157 7784 10 line
6157 7784 6157 7802 10 line
6157 7802 6151 7820 10 line
6151 7820 6133 7832 10 line
6133 7832 6097 7832 10 line
6097 7832 6097 7754 10 line
grestore
5700 7500 6200 7500 5 line
6200 7500 6200 8300 5 line
6200 8300 5700 8300 5 line
5700 8300 5700 7500 5 line
grestore
gsave
6071 8404 6131 8482 10 line
6071 8482 6131 8404 10 line
6164 8404 6164 8482 10 line
6164 8482 6158 8470 10 line
6158 8470 6152 8464 10 line
grestore
gsave
5972 8322 5978 8310 10 line
5978 8310 5990 8304 10 line
5990 8304 6008 8304 10 line
6008 8304 6020 8310 10 line
6020 8310 6026 8322 10 line
6026 8322 6026 8328 10 line
6026 8328 6014 8340 10 line
6014 8340 5978 8358 10 line
5978 8358 5972 8364 10 line
5972 8364 5972 8370 10 line
5972 8370 5978 8376 10 line
5978 8376 5990 8382 10 line
5990 8382 6008 8382 10 line
6008 8382 6020 8376 10 line
6053 8304 6053 8382 10 line
6074 8382 6074 8304 10 line
6074 8304 6122 8304 10 line
6140 8310 6152 8304 10 line
6152 8304 6170 8304 10 line
6170 8304 6182 8310 10 line
6182 8310 6188 8322 10 line
6188 8322 6188 8340 10 line
6188 8340 6182 8352 10 line
6182 8352 6170 8358 10 line
6170 8358 6152 8358 10 line
6152 8358 6140 8352 10 line
6140 8352 6146 8382 10 line
6146 8382 6182 8382 10 line
grestore
gsave
10500 8300 10600 8300 10 line
10750 8350 10800 8300 10 line
10800 8300 10750 8250 10 line
10600 8300 10650 8250 10 line
10650 8350 10600 8300 10 line
10650 8350 10750 8350 10 line
10650 8250 10750 8250 10 line
grestore
gsave
10825 8332 10825 8278 10 line
10825 8278 10831 8266 10 line
10831 8266 10837 8260 10 line
10837 8260 10849 8254 10 line
10849 8254 10864 8254 10 line
10864 8254 10876 8260 10 line
10876 8260 10882 8266 10 line
10882 8266 10888 8278 10 line
10888 8278 10888 8332 10 line
10906 8272 10912 8260 10 line
10912 8260 10924 8254 10 line
10924 8254 10942 8254 10 line
10942 8254 10954 8260 10 line
10954 8260 10960 8272 10 line
10960 8272 10960 8278 10 line
10960 8278 10948 8290 10 line
10948 8290 10912 8308 10 line
10912 8308 10906 8314 10 line
10906 8314 10906 8320 10 line
10906 8320 10912 8326 10 line
10912 8326 10924 8332 10 line
10924 8332 10942 8332 10 line
10942 8332 10954 8326 10 line
10981 8254 10981 8332 10 line
10981 8332 11011 8332 10 line
11011 8332 11026 8326 10 line
11026 8326 11032 8314 10 line
11032 8314 11032 8308 10 line
11032 8308 11020 8296 10 line
11020 8296 10981 8296 10 line
10981 8254 11020 8254 10 line
11020 8254 11032 8260 10 line
11032 8260 11038 8272 10 line
11038 8272 11038 8278 10 line
11038 8278 11032 8290 10 line
11032 8290 11020 8296 10 line
11068 8260 11128 8260 10 line
11143 8254 11143 8332 10 line
11143 8332 11179 8254 10 line
11179 8254 11215 8332 10 line
11215 8332 11215 8254 10 line
grestore
gsave
10500 8000 10600 8000 10 line
10750 8050 10800 8000 10 line
10800 8000 10750 7950 10 line
10600 8000 10650 7950 10 line
10650 8050 10600 8000 10 line
10650 8050 10750 8050 10 line
10650 7950 10750 7950 10 line
grestore
gsave
10825 8032 10825 7978 10 line
10825 7978 10831 7966 10 line
10831 7966 10837 7960 10 line
10837 7960 10849 7954 10 line
10849 7954 10864 7954 10 line
10864 7954 10876 7960 10 line
10876 7960 10882 7966 10 line
10882 7966 10888 7978 10 line
10888 7978 10888 8032 10 line
10906 7972 10912 7960 10 line
10912 7960 10924 7954 10 line
10924 7954 10942 7954 10 line
10942 7954 10954 7960 10 line
10954 7960 10960 7972 10 line
10960 7972 10960 7978 10 line
10960 7978 10948 7990 10 line
10948 7990 10912 8008 10 line
10912 8008 10906 8014 10 line
10906 8014 10906 8020 10 line
10906 8020 10912 8026 10 line
10912 8026 10924 8032 10 line
10924 8032 10942 8032 10 line
10942 8032 10954 8026 10 line
10981 7954 10981 8032 10 line
10981 8032 11011 8032 10 line
11011 8032 11026 8026 10 line
11026 8026 11032 8014 10 line
11032 8014 11032 8008 10 line
11032 8008 11020 7996 10 line
11020 7996 10981 7996 10 line
10981 7954 11020 7954 10 line
11020 7954 11032 7960 10 line
11032 7960 11038 7972 10 line
11038 7972 11038 7978 10 line
11038 7978 11032 7990 10 line
11032 7990 11020 7996 10 line
11068 7960 11128 7960 10 line
11143 7954 11143 8032 10 line
11143 8032 11182 8032 10 line
11182 8032 11194 8020 10 line
11194 8020 11194 8008 10 line
11194 8008 11182 7996 10 line
11182 7996 11143 7996 10 line
grestore
gsave
5700 7100 5625 7100 10 line
5425 7050 5625 7050 10 line
5625 7050 5625 7150 10 line
5625 7150 5425 7150 10 line
5425 7150 5425 7050 10 line
grestore
gsave
4980 7071 4986 7059 10 line
4986 7059 4998 7053 10 line
4998 7053 5016 7053 10 line
5016 7053 5028 7059 10 line
5028 7059 5034 7071 10 line
5034 7071 5034 7077 10 line
5034 7077 5022 7089 10 line
5022 7089 4986 7107 10 line
4986 7107 4980 7113 10 line
4980 7113 4980 7119 10 line
4980 7119 4986 7125 10 line
4986 7125 4998 7131 10 line
4998 7131 5016 7131 10 line
5016 7131 5028 7125 10 line
5055 7053 5055 7131 10 line
5112 7053 5112 7131 10 line
5055 7095 5112 7095 10 line
5148 7053 5148 7131 10 line
5223 7053 5169 7053 10 line
5169 7053 5169 7131 10 line
5169 7131 5223 7131 10 line
5169 7095 5211 7095 10 line
5256 7131 5256 7053 10 line
5256 7053 5304 7053 10 line
5322 7053 5358 7053 10 line
5358 7053 5376 7065 10 line
5376 7065 5382 7083 10 line
5382 7083 5382 7101 10 line
5382 7101 5376 7119 10 line
5376 7119 5358 7131 10 line
5358 7131 5322 7131 10 line
5322 7131 5322 7053 10 line
grestore
gsave
4400 5500 4475 5500 10 line
4475 5450 4675 5450 10 line
4675 5450 4675 5550 10 line
4675 5550 4475 5550 10 line
4475 5550 4475 5450 10 line
grestore
gsave
4700 5531 4733 5453 10 line
4733 5453 4766 5531 10 line
4823 5453 4805 5453 10 line
4805 5453 4787 5465 10 line
4787 5465 4781 5483 10 line
4781 5483 4781 5501 10 line
4781 5501 4787 5519 10 line
4787 5519 4805 5531 10 line
4805 5531 4823 5531 10 line
4823 5531 4841 5519 10 line
4823 5453 4841 5465 10 line
4907 5453 4889 5453 10 line
4889 5453 4871 5465 10 line
4871 5465 4865 5483 10 line
4865 5483 4865 5501 10 line
4865 5501 4871 5519 10 line
4871 5519 4889 5531 10 line
4889 5531 4907 5531 10 line
4907 5531 4925 5519 10 line
4907 5453 4925 5465 10 line
grestore
gsave
4400 5200 4475 5200 10 line
4475 5150 4675 5150 10 line
4675 5150 4675 5250 10 line
4675 5250 4475 5250 10 line
4475 5250 4475 5150 10 line
grestore
gsave
4742 5153 4760 5159 10 line
4760 5159 4766 5171 10 line
4766 5171 4766 5189 10 line
4766 5189 4742 5189 10 line
4742 5153 4724 5153 10 line
4724 5153 4706 5165 10 line
4706 5165 4700 5183 10 line
4700 5183 4700 5201 10 line
4700 5201 4706 5219 10 line
4706 5219 4724 5231 10 line
4724 5231 4742 5231 10 line
4742 5231 4760 5219 10 line
4790 5153 4790 5231 10 line
4790 5231 4850 5153 10 line
4850 5153 4850 5231 10 line
4874 5153 4910 5153 10 line
4910 5153 4928 5165 10 line
4928 5165 4934 5183 10 line
4934 5183 4934 5201 10 line
4934 5201 4928 5219 10 line
4928 5219 4910 5231 10 line
4910 5231 4874 5231 10 line
4874 5231 4874 5153 10 line
grestore
gsave
4200 5000 4200 5100 10 line
gsave
4116 4909 4134 4915 10 line
4134 4915 4140 4927 10 line
4140 4927 4140 4945 10 line
4140 4945 4116 4945 10 line
4116 4909 4098 4909 10 line
4098 4909 4080 4921 10 line
4080 4921 4074 4939 10 line
4074 4939 4074 4957 10 line
4074 4957 4080 4975 10 line
4080 4975 4098 4987 10 line
4098 4987 4116 4987 10 line
4116 4987 4134 4975 10 line
4164 4909 4164 4987 10 line
4164 4987 4224 4909 10 line
4224 4909 4224 4987 10 line
4248 4909 4284 4909 10 line
4284 4909 4302 4921 10 line
4302 4921 4308 4939 10 line
4308 4939 4308 4957 10 line
4308 4957 4302 4975 10 line
4302 4975 4284 4987 10 line
4284 4987 4248 4987 10 line
4248 4987 4248 4909 10 line
grestore
4100 5000 4300 5000 10 line
grestore
gsave
4200 5825 50 0 360 5 darc
4200 5775 4200 5700 10 line
gsave
4075 5978 4108 5900 10 line
4108 5900 4141 5978 10 line
4198 5900 4180 5900 10 line
4180 5900 4162 5912 10 line
4162 5912 4156 5930 10 line
4156 5930 4156 5948 10 line
4156 5948 4162 5966 10 line
4162 5966 4180 5978 10 line
4180 5978 4198 5978 10 line
4198 5978 4216 5966 10 line
4198 5900 4216 5912 10 line
4282 5900 4264 5900 10 line
4264 5900 4246 5912 10 line
4246 5912 4240 5930 10 line
4240 5930 4240 5948 10 line
4240 5948 4246 5966 10 line
4246 5966 4264 5978 10 line
4264 5978 4282 5978 10 line
4282 5978 4300 5966 10 line
4282 5900 4300 5912 10 line
grestore
grestore
4200 5700 4200 5500 10 line
4200 5500 4400 5500 10 line
4400 5200 4200 5200 10 line
4200 5200 4200 5100 10 line
gsave
7500 8500 7500 8600 10 line
7500 8900 7500 8800 10 line
7450 8600 7550 8600 5 line
7550 8600 7550 8800 5 line
7550 8800 7450 8800 5 line
7450 8800 7450 8600 5 line
7525 8825 7550 8825 5 line
7550 8825 7550 8850 5 line
7550 8850 7525 8850 5 line
7525 8850 7525 8825 5 line
grestore
gsave
7600 8775 7600 8853 10 line
7600 8853 7639 8853 10 line
7639 8853 7651 8841 10 line
7651 8841 7651 8829 10 line
7651 8829 7639 8817 10 line
7639 8817 7600 8817 10 line
7624 8817 7657 8775 10 line
7690 8775 7690 8853 10 line
7690 8853 7684 8841 10 line
7684 8841 7678 8835 10 line
7738 8775 7738 8853 10 line
7738 8853 7732 8841 10 line
7732 8841 7726 8835 10 line
grestore
gsave
7654 8650 7600 8650 10 line
7600 8650 7612 8662 10 line
7612 8662 7648 8686 10 line
7648 8686 7654 8698 10 line
7654 8698 7654 8710 10 line
7654 8710 7648 8722 10 line
7648 8722 7636 8728 10 line
7636 8728 7624 8728 10 line
7624 8728 7612 8722 10 line
7612 8722 7606 8716 10 line
7678 8650 7678 8728 10 line
7678 8674 7714 8698 10 line
7720 8650 7690 8680 10 line
7789 8650 7735 8650 10 line
7735 8650 7747 8662 10 line
7747 8662 7783 8686 10 line
7783 8686 7789 8698 10 line
7789 8698 7789 8710 10 line
7789 8710 7783 8722 10 line
7783 8722 7771 8728 10 line
7771 8728 7759 8728 10 line
7759 8728 7747 8722 10 line
7747 8722 7741 8716 10 line
grestore
7500 8500 7500 8200 10 line
7500 8900 7500 9100 10 line
7500 9100 6400 9100 10 line
gsave
4700 8100 4700 8025 10 line
4700 7800 4700 7875 10 line
4825 7875 4575 7875 5 line
4575 7975 4825 7975 5 line
4825 7975 4825 8025 5 line
4825 8025 4575 8025 5 line
4575 8025 4575 7975 5 line
4800 8075 4750 8075 5 line
4775 8050 4775 8100 5 line
grestore
gsave
4892 7950 4874 7950 10 line
4874 7950 4856 7962 10 line
4856 7962 4850 7980 10 line
4850 7980 4850 7998 10 line
4850 7998 4856 8016 10 line
4856 8016 4874 8028 10 line
4874 8028 4892 8028 10 line
4892 8028 4910 8016 10 line
4892 7950 4910 7962 10 line
4982 8022 4970 8028 10 line
4970 8028 4952 8028 10 line
4952 8028 4940 8016 10 line
4940 8016 4934 7998 10 line
4934 7998 4934 7980 10 line
4934 7980 4940 7962 10 line
4940 7962 4952 7950 10 line
4952 7950 4970 7950 10 line
4970 7950 4982 7956 10 line
4982 7956 4988 7968 10 line
4988 7968 4988 7986 10 line
4988 7986 4982 7998 10 line
4982 7998 4970 8004 10 line
4970 8004 4952 8004 10 line
4952 8004 4940 7998 10 line
4940 7998 4934 7992 10 line
grestore
gsave
4862 7850 4862 7928 10 line
4862 7928 4856 7916 10 line
4856 7916 4850 7910 10 line
4916 7850 4904 7862 10 line
4904 7862 4898 7880 10 line
4898 7880 4898 7898 10 line
4898 7898 4904 7916 10 line
4904 7916 4916 7928 10 line
4916 7928 4934 7928 10 line
4934 7928 4946 7916 10 line
4946 7916 4952 7898 10 line
4952 7898 4952 7880 10 line
4952 7880 4946 7862 10 line
4946 7862 4934 7850 10 line
4934 7850 4916 7850 10 line
4976 7898 4976 7862 10 line
4976 7862 4988 7850 10 line
4988 7850 5006 7850 10 line
5006 7850 5018 7856 10 line
5018 7850 5018 7898 10 line
grestore
gsave
4500 8188 4572 8188 10 line
4572 8188 4578 8182 10 line
4578 8182 4578 8170 10 line
4554 8200 4554 8176 10 line
4500 8146 4506 8158 10 line
4506 8158 4518 8164 10 line
4518 8164 4530 8164 10 line
4530 8164 4542 8158 10 line
4542 8158 4548 8146 10 line
4548 8146 4548 8140 10 line
4548 8140 4542 8128 10 line
4542 8128 4530 8122 10 line
4530 8122 4518 8122 10 line
4518 8122 4506 8128 10 line
4506 8128 4500 8140 10 line
4500 8140 4500 8146 10 line
4500 8086 4506 8098 10 line
4506 8098 4518 8104 10 line
4518 8104 4530 8104 10 line
4530 8104 4542 8098 10 line
4542 8098 4548 8086 10 line
4548 8086 4548 8080 10 line
4548 8080 4542 8068 10 line
4542 8068 4530 8062 10 line
4530 8062 4518 8062 10 line
4518 8062 4506 8068 10 line
4506 8068 4500 8080 10 line
4500 8080 4500 8086 10 line
4554 8044 4554 8020 10 line
4578 8032 4506 8032 10 line
4506 8032 4500 8026 10 line
4500 8026 4500 8020 10 line
4548 8008 4482 8008 10 line
4506 8008 4500 7996 10 line
4500 7996 4500 7984 10 line
4500 7984 4506 7972 10 line
4506 7972 4518 7966 10 line
4518 7966 4530 7966 10 line
4530 7966 4542 7972 10 line
4542 7972 4548 7984 10 line
4548 7984 4548 7996 10 line
4548 7996 4542 8008 10 line
4500 7948 4548 7948 10 line
4542 7948 4548 7936 10 line
4548 7936 4548 7924 10 line
4548 7924 4542 7918 10 line
4500 7900 4548 7900 10 line
4563 7900 4566 7900 10 line
4500 7882 4548 7882 10 line
4542 7882 4548 7870 10 line
4548 7870 4548 7852 10 line
4548 7852 4536 7840 10 line
4536 7840 4500 7840 10 line
4554 7822 4554 7798 10 line
4578 7810 4506 7810 10 line
4506 7810 4500 7804 10 line
4500 7804 4500 7798 10 line
4530 7786 4530 7750 10 line
4542 7786 4542 7750 10 line
4500 7672 4500 7726 10 line
4500 7726 4578 7726 10 line
4578 7726 4578 7672 10 line
4542 7726 4542 7684 10 line
4578 7639 4500 7639 10 line
4500 7639 4500 7591 10 line
4500 7531 4500 7549 10 line
4500 7549 4512 7567 10 line
4512 7567 4530 7573 10 line
4530 7573 4548 7573 10 line
4548 7573 4566 7567 10 line
4566 7567 4578 7549 10 line
4578 7549 4578 7531 10 line
4578 7531 4566 7513 10 line
4500 7531 4512 7513 10 line
4536 7489 4536 7453 10 line
4500 7375 4500 7429 10 line
4500 7429 4512 7417 10 line
4512 7417 4536 7381 10 line
4536 7381 4548 7375 10 line
4548 7375 4560 7375 10 line
4560 7375 4572 7381 10 line
4572 7381 4578 7393 10 line
4578 7393 4578 7405 10 line
4578 7405 4572 7417 10 line
4572 7417 4566 7423 10 line
4497 7345 4497 7342 10 line
4497 7342 4500 7339 10 line
4500 7339 4503 7339 10 line
4503 7339 4506 7342 10 line
4506 7342 4506 7345 10 line
4506 7345 4503 7348 10 line
4503 7348 4500 7348 10 line
4500 7348 4497 7345 10 line
4506 7315 4500 7303 10 line
4500 7303 4500 7285 10 line
4500 7285 4506 7273 10 line
4506 7273 4518 7267 10 line
4518 7267 4536 7267 10 line
4536 7267 4548 7273 10 line
4548 7273 4554 7285 10 line
4554 7285 4554 7303 10 line
4554 7303 4548 7315 10 line
4548 7315 4578 7309 10 line
4578 7309 4578 7273 10 line
grestore
gsave
4700 8425 50 0 360 5 darc
4700 8375 4700 8300 10 line
gsave
4575 8578 4608 8500 10 line
4608 8500 4641 8578 10 line
4698 8500 4680 8500 10 line
4680 8500 4662 8512 10 line
4662 8512 4656 8530 10 line
4656 8530 4656 8548 10 line
4656 8548 4662 8566 10 line
4662 8566 4680 8578 10 line
4680 8578 4698 8578 10 line
4698 8578 4716 8566 10 line
4698 8500 4716 8512 10 line
4782 8500 4764 8500 10 line
4764 8500 4746 8512 10 line
4746 8512 4740 8530 10 line
4740 8530 4740 8548 10 line
4740 8548 4746 8566 10 line
4746 8566 4764 8578 10 line
4764 8578 4782 8578 10 line
4782 8578 4800 8566 10 line
4782 8500 4800 8512 10 line
grestore
grestore
gsave
4700 7500 4700 7600 10 line
gsave
4616 7409 4634 7415 10 line
4634 7415 4640 7427 10 line
4640 7427 4640 7445 10 line
4640 7445 4616 7445 10 line
4616 7409 4598 7409 10 line
4598 7409 4580 7421 10 line
4580 7421 4574 7439 10 line
4574 7439 4574 7457 10 line
4574 7457 4580 7475 10 line
4580 7475 4598 7487 10 line
4598 7487 4616 7487 10 line
4616 7487 4634 7475 10 line
4664 7409 4664 7487 10 line
4664 7487 4724 7409 10 line
4724 7409 4724 7487 10 line
4748 7409 4784 7409 10 line
4784 7409 4802 7421 10 line
4802 7421 4808 7439 10 line
4808 7439 4808 7457 10 line
4808 7457 4802 7475 10 line
4802 7475 4784 7487 10 line
4784 7487 4748 7487 10 line
4748 7487 4748 7409 10 line
grestore
4600 7500 4800 7500 10 line
grestore
4700 7800 4700 7600 10 line
4700 8300 4700 8100 10 line
[[4000 7200 4100 7200] [4200 7200 4300 7200] [4400 7200 4500 7200] [4600 7200 4700 7200] [4800 7200 4900 7200] [5000 7200 5100 7200] [5200 7200 5300 7200] ] 10 dashed
[[5300 7200 5300 7300] [5300 7400 5300 7500] [5300 7600 5300 7700] [5300 7800 5300 7900] [5300 8000 5300 8100] [5300 8200 5300 8300] [5300 8400 5300 8500] [5300 8600 5300 8700] [5300 8800 5300 8900] ] 10 dashed
[[5300 9000 5200 9000] [5100 9000 5000 9000] [4900 9000 4800 9000] [4700 9000 4600 9000] [4500 9000 4400 9000] [4300 9000 4200 9000] [4100 9000 4000 9000] ] 10 dashed
[[4000 9000 4000 8900] [4000 8800 4000 8700] [4000 8600 4000 8500] [4000 8400 4000 8300] [4000 8200 4000 8100] [4000 8000 4000 7900] [4000 7800 4000 7700] [4000 7600 4000 7500] [4000 7400 4000 7300] ] 10 dashed
gsave
4333 8882 4333 8960 10 line
4333 8960 4372 8960 10 line
4372 8960 4384 8948 10 line
4384 8948 4384 8936 10 line
4384 8936 4372 8924 10 line
4372 8924 4333 8924 10 line
4414 8882 4414 8960 10 line
4483 8882 4477 8888 10 line
4477 8888 4477 8918 10 line
4477 8918 4465 8930 10 line
4465 8930 4447 8930 10 line
4447 8930 4441 8924 10 line
4477 8888 4465 8882 10 line
4465 8882 4447 8882 10 line
4447 8882 4435 8888 10 line
4435 8888 4435 8894 10 line
4435 8894 4447 8906 10 line
4447 8906 4477 8906 10 line
4549 8888 4537 8882 10 line
4537 8882 4525 8882 10 line
4525 8882 4513 8888 10 line
4513 8888 4507 8900 10 line
4507 8900 4507 8912 10 line
4507 8912 4513 8924 10 line
4513 8924 4525 8930 10 line
4525 8930 4537 8930 10 line
4537 8930 4549 8924 10 line
4615 8888 4603 8882 10 line
4603 8882 4591 8882 10 line
4591 8882 4579 8888 10 line
4579 8888 4573 8900 10 line
4573 8900 4573 8912 10 line
4573 8912 4579 8924 10 line
4579 8924 4591 8930 10 line
4591 8930 4603 8930 10 line
4603 8930 4615 8924 10 line
4573 8906 4621 8906 10 line
4621 8906 4621 8912 10 line
4621 8912 4615 8924 10 line
4666 8882 4666 8930 10 line
4666 8924 4678 8930 10 line
4678 8930 4696 8930 10 line
4696 8930 4708 8918 10 line
4708 8918 4708 8882 10 line
4768 8888 4756 8882 10 line
4756 8882 4744 8882 10 line
4744 8882 4732 8888 10 line
4732 8888 4726 8900 10 line
4726 8900 4726 8912 10 line
4726 8912 4732 8924 10 line
4732 8924 4744 8930 10 line
4744 8930 4756 8930 10 line
4756 8930 4768 8924 10 line
4726 8906 4774 8906 10 line
4774 8906 4774 8912 10 line
4774 8912 4768 8924 10 line
4834 8882 4828 8888 10 line
4828 8888 4828 8918 10 line
4828 8918 4816 8930 10 line
4816 8930 4798 8930 10 line
4798 8930 4792 8924 10 line
4828 8888 4816 8882 10 line
4816 8882 4798 8882 10 line
4798 8882 4786 8888 10 line
4786 8888 4786 8894 10 line
4786 8894 4798 8906 10 line
4798 8906 4828 8906 10 line
4858 8882 4858 8930 10 line
4858 8924 4870 8930 10 line
4870 8930 4882 8930 10 line
4882 8930 4888 8924 10 line
4342 8706 4330 8700 10 line
4330 8700 4318 8700 10 line
4318 8700 4306 8706 10 line
4306 8706 4300 8718 10 line
4300 8718 4300 8730 10 line
4300 8730 4306 8742 10 line
4306 8742 4318 8748 10 line
4318 8748 4330 8748 10 line
4330 8748 4342 8742 10 line
4384 8700 4372 8706 10 line
4372 8706 4366 8718 10 line
4366 8718 4366 8730 10 line
4366 8730 4372 8742 10 line
4372 8742 4384 8748 10 line
4384 8748 4390 8748 10 line
4390 8748 4402 8742 10 line
4402 8742 4408 8730 10 line
4408 8730 4408 8718 10 line
4408 8718 4402 8706 10 line
4402 8706 4390 8700 10 line
4390 8700 4384 8700 10 line
4426 8700 4426 8748 10 line
4426 8742 4438 8748 10 line
4438 8748 4456 8748 10 line
4456 8748 4468 8736 10 line
4468 8736 4468 8700 10 line
4486 8700 4486 8748 10 line
4486 8742 4498 8748 10 line
4498 8748 4516 8748 10 line
4516 8748 4528 8736 10 line
4528 8736 4528 8700 10 line
4588 8706 4576 8700 10 line
4576 8700 4564 8700 10 line
4564 8700 4552 8706 10 line
4552 8706 4546 8718 10 line
4546 8718 4546 8730 10 line
4546 8730 4552 8742 10 line
4552 8742 4564 8748 10 line
4564 8748 4576 8748 10 line
4576 8748 4588 8742 10 line
4546 8724 4594 8724 10 line
4594 8724 4594 8730 10 line
4594 8730 4588 8742 10 line
4648 8706 4636 8700 10 line
4636 8700 4624 8700 10 line
4624 8700 4612 8706 10 line
4612 8706 4606 8718 10 line
4606 8718 4606 8730 10 line
4606 8730 4612 8742 10 line
4612 8742 4624 8748 10 line
4624 8748 4636 8748 10 line
4636 8748 4648 8742 10 line
4672 8754 4696 8754 10 line
4684 8778 4684 8706 10 line
4684 8706 4690 8700 10 line
4690 8700 4696 8700 10 line
4726 8700 4714 8706 10 line
4714 8706 4708 8718 10 line
4708 8718 4708 8730 10 line
4708 8730 4714 8742 10 line
4714 8742 4726 8748 10 line
4726 8748 4732 8748 10 line
4732 8748 4744 8742 10 line
4744 8742 4750 8730 10 line
4750 8730 4750 8718 10 line
4750 8718 4744 8706 10 line
4744 8706 4732 8700 10 line
4732 8700 4726 8700 10 line
4768 8700 4768 8748 10 line
4768 8742 4780 8748 10 line
4780 8748 4792 8748 10 line
4792 8748 4798 8742 10 line
4843 8700 4903 8778 10 line
4843 8778 4903 8700 10 line
4936 8700 4936 8778 10 line
4936 8778 4930 8766 10 line
4930 8766 4924 8760 10 line
grestore
newpath
6400 9100
30
0 360 arc
fill
newpath
7500 8200
30
0 360 arc
fill
newpath
7500 8200
30
0 360 arc
fill
newpath
7800 8100
30
0 360 arc
fill
newpath
8900 8300
30
0 360 arc
fill
newpath
9400 8000
30
0 360 arc
fill
newpath
8900 8300
30
0 360 arc
fill
newpath
8900 8300
30
0 360 arc
fill
newpath
9400 8000
30
0 360 arc
fill
newpath
9400 8000
30
0 360 arc
fill
newpath
9500 9100
30
0 360 arc
fill
newpath
9500 9100
30
0 360 arc
fill
newpath
9500 9100
30
0 360 arc
fill
newpath
7500 8200
30
0 360 arc
fill
newpath
7500 8200
30
0 360 arc
fill
newpath
7800 8100
30
0 360 arc
fill
newpath
7800 8100
30
0 360 arc
fill
newpath
7500 8200
30
0 360 arc
fill
newpath
7500 8200
30
0 360 arc
fill
newpath
6400 9100
30
0 360 arc
fill
newpath
6400 9100
30
0 360 arc
fill
showpage
%%End
